…
Para mais informações sobre o`lubridate`, visite o [vignette do pacote](https://cran.r-project.org/web/packages/lubridate/vignettes/lubridate.html).

### Exercícios

Nos exercícios a seguir, vamos utilizar a base `lakers`, que contém estatísticas jogo a jogo do [Los Angeles Lakers](http://www.nba.com/lakers/) na temporada 2008-2009.


```r
lakers %>% as_tibble()
```

```
## # A tibble: 34,624 x 13
##      date opponent game_type time  period etype team  player result points type 
##     <int> <chr>    <chr>     <chr>  <int> <chr> <chr> <chr>  <chr>   <int> <chr>
##  1 2.01e7 POR      home      12:00      1 jump… OFF   ""     ""          0 ""   
##  2 2.01e7 POR      home      11:39      1 shot  LAL   "Pau … "miss…      0 "hoo…
##  3 2.01e7 POR      home      11:37      1 rebo… LAL   "Vlad… ""          0 "off"
##  4 2.01e7 POR      home      11:25      1 shot  LAL   "Dere… "miss…      0 "lay…
##  5 2.01e7 POR      home      11:23      1 rebo… LAL   "Pau … ""          0 "off"
##  6 2.01e7 POR      home      11:22      1 shot  LAL   "Pau … "made"      2 "hoo…
##  7 2.01e7 POR      home      11:22      1 foul  POR   "Greg… ""          0 "sho…
##  8 2.01e7 POR      home      11:22      1 free… LAL   "Pau … "made"      1 ""   
##  9 2.01e7 POR      home      11:00      1 foul  LAL   "Vlad… ""          0 "per…
## 10 2.01e7 POR      home      10:53      1 shot  POR   "LaMa… "made"      2 "jum…
## # … with 34,614 more rows, and 2 more variables: x <int>, y <int>
```
…
