…
Assim, utilizaremos o objeto `imdb` para acessar os dados.





```r
imdb <- readr::read_rds("imdb.rds")
imdb
```


```
## # A tibble: 3,807 x 15
##    titulo   ano diretor duracao cor   generos pais  classificacao orcamento
##    <chr>  <int> <chr>     <int> <chr> <chr>   <chr> <chr>             <int>
##  1 Avata…  2009 James …     178 Color Action… USA   A partir de … 237000000
##  2 Pirat…  2007 Gore V…     169 Color Action… USA   A partir de … 300000000
##  3 The D…  2012 Christ…     164 Color Action… USA   A partir de … 250000000
##  4 John …  2012 Andrew…     132 Color Action… USA   A partir de … 263700000
##  5 Spide…  2007 Sam Ra…     156 Color Action… USA   A partir de … 258000000
##  6 Tangl…  2010 Nathan…     100 Color Advent… USA   Livre         260000000
##  7 Aveng…  2015 Joss W…     141 Color Action… USA   A partir de … 250000000
##  8 Batma…  2016 Zack S…     183 Color Action… USA   A partir de … 250000000
##  9 Super…  2006 Bryan …     169 Color Action… USA   A partir de … 209000000
## 10 Pirat…  2006 Gore V…     151 Color Action… USA   A partir de … 225000000
## # … with 3,797 more rows, and 6 more variables: receita <int>, nota_imdb <dbl>,
## #   likes_facebook <int>, ator_1 <chr>, ator_2 <chr>, ator_3 <chr>
```
Agora, vamos avaliar com mais detalhes as principais funções do pacote `dplyr`.

### Selecionando colunas

Para selecionar colunas, utilizamos a função `select()`.

O primeiro argumento da função é a base de dados e os demais argumentos são os nomes das colunas que você gostaria de selecionar. Repare que você não precisa colocar o nome da coluna entre aspas.


```r
select(imdb, titulo)
```

```
## # A tibble: 3,807 x 1
##    titulo                                     
##    <chr>                                      
##  1 Avatar                                     
##  2 Pirates of the Caribbean: At World's End   
##  3 The Dark Knight Rises                      
##  4 John Carter                                
##  5 Spider-Man 3                               
##  6 Tangled                                    
##  7 Avengers: Age of Ultron                    
##  8 Batman v Superman: Dawn of Justice         
##  9 Superman Returns                           
## 10 Pirates of the Caribbean: Dead Man's Chest 
## # … with 3,797 more rows
```


Você também pode selecionar várias colunas.


```r
select(imdb, titulo, ano, orcamento)
```

```
## # A tibble: 3,807 x 3
##    titulo                                        ano orcamento
##    <chr>                                       <int>     <int>
##  1 Avatar                                       2009 237000000
##  2 Pirates of the Caribbean: At World's End     2007 300000000
##  3 The Dark Knight Rises                        2012 250000000
##  4 John Carter                                  2012 263700000
##  5 Spider-Man 3                                 2007 258000000
##  6 Tangled                                      2010 260000000
##  7 Avengers: Age of Ultron                      2015 250000000
##  8 Batman v Superman: Dawn of Justice           2016 250000000
##  9 Superman Returns                             2006 209000000
## 10 Pirates of the Caribbean: Dead Man's Chest   2006 225000000
## # … with 3,797 more rows
```

O operador `:` é muito útil para selecionar colunas consecutivas.


```r
select(imdb, titulo:cor)
```

```
## # A tibble: 3,807 x 5
##    titulo                                     ano diretor          duracao cor  
##    <chr>                                    <int> <chr>              <int> <chr>
##  1 Avatar                                    2009 James Cameron        178 Color
##  2 Pirates of the Caribbean: At World's En…  2007 Gore Verbinski       169 Color
##  3 The Dark Knight Rises                     2012 Christopher Nol…     164 Color
##  4 John Carter                               2012 Andrew Stanton       132 Color
##  5 Spider-Man 3                              2007 Sam Raimi            156 Color
##  6 Tangled                                   2010 Nathan Greno         100 Color
##  7 Avengers: Age of Ultron                   2015 Joss Whedon          141 Color
##  8 Batman v Superman: Dawn of Justice        2016 Zack Snyder          183 Color
##  9 Superman Returns                          2006 Bryan Singer         169 Color
## 10 Pirates of the Caribbean: Dead Man's Ch…  2006 Gore Verbinski       151 Color
## # … with 3,797 more rows
```
O `dplyr` possui o conjunto de funções auxiliares muito úteis para seleção de colunas. As principais são:

- `starts_with()`: para colunas que começam com um texto padrão
- `ends_with()`: para colunas que terminam com um texto padrão
- `contains()`: para colunas que contêm um texto padrão

Selecionamos a seguir todas as colunas que começam com o texto "ator".


```r
select(imdb, starts_with("ator"))
```

```
## # A tibble: 3,807 x 3
##    ator_1          ator_2            ator_3              
##    <chr>           <chr>             <chr>               
##  1 CCH Pounder     Joel David Moore  Wes Studi           
##  2 Johnny Depp     Orlando Bloom     Jack Davenport      
##  3 Tom Hardy       Christian Bale    Joseph Gordon-Levitt
##  4 Daryl Sabara    Samantha Morton   Polly Walker        
##  5 J.K. Simmons    James Franco      Kirsten Dunst       
##  6 Brad Garrett    Donna Murphy      M.C. Gainey         
##  7 Chris Hemsworth Robert Downey Jr. Scarlett Johansson  
##  8 Henry Cavill    Lauren Cohan      Alan D. Purwin      
##  9 Kevin Spacey    Marlon Brando     Frank Langella      
## 10 Johnny Depp     Orlando Bloom     Jack Davenport      
## # … with 3,797 more rows
```

Para retirar colunas da base, base acrescentar um `-` antes da seleção.


```r
imdb %>%
  select(-ano, - diretor)
```

```
## # A tibble: 3,807 x 13
##    titulo duracao cor   generos pais  classificacao orcamento receita nota_imdb
##    <chr>    <int> <chr> <chr>   <chr> <chr>             <int>   <int>     <dbl>
##  1 Avata…     178 Color Action… USA   A partir de … 237000000  7.61e8       7.9
##  2 Pirat…     169 Color Action… USA   A partir de … 300000000  3.09e8       7.1
##  3 The D…     164 Color Action… USA   A partir de … 250000000  4.48e8       8.5
##  4 John …     132 Color Action… USA   A partir de … 263700000  7.31e7       6.6
##  5 Spide…     156 Color Action… USA   A partir de … 258000000  3.37e8       6.2
##  6 Tangl…     100 Color Advent… USA   Livre         260000000  2.01e8       7.8
##  7 Aveng…     141 Color Action… USA   A partir de … 250000000  4.59e8       7.5
##  8 Batma…     183 Color Action… USA   A partir de … 250000000  3.30e8       6.9
##  9 Super…     169 Color Action… USA   A partir de … 209000000  2.00e8       6.1
## 10 Pirat…     151 Color Action… USA   A partir de … 225000000  4.23e8       7.3
## # … with 3,797 more rows, and 4 more variables: likes_facebook <int>,
## #   ator_1 <chr>, ator_2 <chr>, ator_3 <chr>
```

```r
imdb %>%
  select(-starts_with("ator"))
```

```
## # A tibble: 3,807 x 12
##    titulo   ano diretor duracao cor   generos pais  classificacao orcamento
##    <chr>  <int> <chr>     <int> <chr> <chr>   <chr> <chr>             <int>
##  1 Avata…  2009 James …     178 Color Action… USA   A partir de … 237000000
##  2 Pirat…  2007 Gore V…     169 Color Action… USA   A partir de … 300000000
##  3 The D…  2012 Christ…     164 Color Action… USA   A partir de … 250000000
##  4 John …  2012 Andrew…     132 Color Action… USA   A partir de … 263700000
##  5 Spide…  2007 Sam Ra…     156 Color Action… USA   A partir de … 258000000
##  6 Tangl…  2010 Nathan…     100 Color Advent… USA   Livre         260000000
##  7 Aveng…  2015 Joss W…     141 Color Action… USA   A partir de … 250000000
##  8 Batma…  2016 Zack S…     183 Color Action… USA   A partir de … 250000000
##  9 Super…  2006 Bryan …     169 Color Action… USA   A partir de … 209000000
## 10 Pirat…  2006 Gore V…     151 Color Action… USA   A partir de … 225000000
## # … with 3,797 more rows, and 3 more variables: receita <int>, nota_imdb <dbl>,
## #   likes_facebook <int>
```
…
**3.** Selecione apenas as colunas `ator_1`, `ator_2` e `ator_3` usando o ajudante `contains()`.

**4.** Usando a função `select()` (e seus ajudantes), escreva códigos que retornem a base IMDB sem as colunas `ator_1`, `ator_2` e `ator_3.` Escreva todas as soluções diferentes que você conseguir pensar. 

### Ordenando a base

Para ordenar linhas, utilizamos a função `arrange()`. O primeiro argumento é a base de dados. Os demais argumentos são as colunas pelas quais queremos ordenar as linhas. No exemplo a seguir, ordenamos as linhas da base por ordem crescente de orçamento.


```r
arrange(imdb, orcamento)
```

```
## # A tibble: 3,807 x 15
##    titulo   ano diretor duracao cor   generos pais  classificacao orcamento
##    <chr>  <int> <chr>     <int> <chr> <chr>   <chr> <chr>             <int>
##  1 Tarna…  2003 Jonath…      88 Color Biogra… USA   Outros              218
##  2 My Da…  2004 Jon Gu…      90 Color Docume… USA   Livre              1100
##  3 A Pla…  2013 Benjam…      76 Color Drama|… USA   Outros             1400
##  4 The M…  2005 Anthon…      84 Color Crime|… USA   A partir de …      3250
##  5 Prime…  2004 Shane …      77 Color Drama|… USA   A partir de …      7000
##  6 El Ma…  1992 Robert…      81 Color Action… USA   A partir de …      7000
##  7 Newly…  2011 Edward…      95 Color Comedy… USA   Outros             9000
##  8 Pink …  1972 John W…     108 Color Comedy… USA   A partir de …     10000
##  9 The T…  2007 Jane C…       7 Color Romanc… USA   Outros            13000
## 10 Paran…  2007 Oren P…      84 Color Horror  USA   A partir de …     15000
## # … with 3,797 more rows, and 6 more variables: receita <int>, nota_imdb <dbl>,
## #   likes_facebook <int>, ator_1 <chr>, ator_2 <chr>, ator_3 <chr>
```

Também podemos ordenar de forma decrescente usando a função `desc()`.


```r
arrange(imdb, desc(orcamento))
```

```
## # A tibble: 3,807 x 15
##    titulo   ano diretor duracao cor   generos pais  classificacao orcamento
##    <chr>  <int> <chr>     <int> <chr> <chr>   <chr> <chr>             <int>
##  1 Pirat…  2007 Gore V…     169 Color Action… USA   A partir de … 300000000
##  2 John …  2012 Andrew…     132 Color Action… USA   A partir de … 263700000
##  3 Tangl…  2010 Nathan…     100 Color Advent… USA   Livre         260000000
##  4 Spide…  2007 Sam Ra…     156 Color Action… USA   A partir de … 258000000
##  5 Spide…  2007 Sam Ra…     156 Color Action… USA   A partir de … 258000000
##  6 The D…  2012 Christ…     164 Color Action… USA   A partir de … 250000000
##  7 Aveng…  2015 Joss W…     141 Color Action… USA   A partir de … 250000000
##  8 Batma…  2016 Zack S…     183 Color Action… USA   A partir de … 250000000
##  9 Pirat…  2011 Rob Ma…     136 Color Action… USA   A partir de … 250000000
## 10 Capta…  2016 Anthon…     147 Color Action… USA   A partir de … 250000000
## # … with 3,797 more rows, and 6 more variables: receita <int>, nota_imdb <dbl>,
## #   likes_facebook <int>, ator_1 <chr>, ator_2 <chr>, ator_3 <chr>
```


E claro, ordenar segundo duas ou mais colunas.


```r
arrange(imdb, desc(ano), desc(orcamento))
```

```
## # A tibble: 3,807 x 15
##    titulo   ano diretor duracao cor   generos pais  classificacao orcamento
##    <chr>  <int> <chr>     <int> <chr> <chr>   <chr> <chr>             <int>
##  1 Batma…  2016 Zack S…     183 Color Action… USA   A partir de … 250000000
##  2 Capta…  2016 Anthon…     147 Color Action… USA   A partir de … 250000000
##  3 Star …  2016 Justin…     122 Color Action… USA   A partir de … 185000000
##  4 The L…  2016 David …     110 Color Action… USA   A partir de … 180000000
##  5 The L…  2016 David …     110 Color Action… USA   A partir de … 180000000
##  6 X-Men…  2016 Bryan …     144 Color Action… USA   A partir de … 178000000
##  7 Suici…  2016 David …     123 Color Action… USA   A partir de … 175000000
##  8 Alice…  2016 James …     113 Color Advent… USA   Livre         170000000
##  9 Indep…  2016 Roland…     120 Color Action… USA   A partir de … 165000000
## 10 Warcr…  2016 Duncan…     123 Color Action… USA   A partir de … 160000000
## # … with 3,797 more rows, and 6 more variables: receita <int>, nota_imdb <dbl>,
## #   likes_facebook <int>, ator_1 <chr>, ator_2 <chr>, ator_3 <chr>
```
…
**1.** Ordene os filmes em ordem crescente de `ano` e decrescente de `receita` e salve em um objeto chamado `filmes_ordenados`.

**2.** Selecione apenas as colunas `titulo` e `orcamento` e então ordene de forma decrescente pelo `orcamento.`

### O pipe em ação

Na grande maioria dos casos, vamos aplicar mais de uma função de manipulação em uma base para obtermos a tabela que desejamos. Poderíamos, por exemplo, querer uma tabela apenas com o título e ano dos filmes, ordenada de forma crescente de lançamento. Para fazer isso, poderíamos aninhar as funções


```r
arrange(select(imdb, titulo, ano), ano)
```

```
## # A tibble: 3,807 x 2
##    titulo                                              ano
##    <chr>                                             <int>
##  1 Intolerance: Love's Struggle Throughout the Ages   1916
##  2 Over the Hill to the Poorhouse                     1920
##  3 The Big Parade                                     1925
##  4 The Broadway Melody                                1929
##  5 Hell's Angels                                      1930
##  6 A Farewell to Arms                                 1932
##  7 42nd Street                                        1933
##  8 She Done Him Wrong                                 1933
##  9 It Happened One Night                              1934
## 10 Top Hat                                            1935
## # … with 3,797 more rows
```

ou criar um objeto intermediário 


```r
tab_titulo_ano <- select(imdb, titulo, ano)

arrange(tab_titulo_ano, ano)
```

```
## # A tibble: 3,807 x 2
##    titulo                                              ano
##    <chr>                                             <int>
##  1 Intolerance: Love's Struggle Throughout the Ages   1916
##  2 Over the Hill to the Poorhouse                     1920
##  3 The Big Parade                                     1925
##  4 The Broadway Melody                                1929
##  5 Hell's Angels                                      1930
##  6 A Farewell to Arms                                 1932
##  7 42nd Street                                        1933
##  8 She Done Him Wrong                                 1933
##  9 It Happened One Night                              1934
## 10 Top Hat                                            1935
## # … with 3,797 more rows
```
…
A primeira alternativa é ruim de escrever, já que precisamos escrever primeiro a função que roda por último, e de ler, pois é difícil identificar qual argumento pertence a qual função.

A segunda alternativa é ruim pois exige a criação de objetos auxiliares. Se quiséssimos aplicar 10 operações na base, precisaríamos criar 9 objetos intermediários.

A solução para aplicar diversas operações de manipulação em uma base de dados é aplicar o operador pipe: `%>%`.


```r
imdb %>% 
  select(titulo, ano) %>% 
  arrange(ano)
```

```
## # A tibble: 3,807 x 2
##    titulo                                              ano
##    <chr>                                             <int>
##  1 Intolerance: Love's Struggle Throughout the Ages   1916
##  2 Over the Hill to the Poorhouse                     1920
##  3 The Big Parade                                     1925
##  4 The Broadway Melody                                1929
##  5 Hell's Angels                                      1930
##  6 A Farewell to Arms                                 1932
##  7 42nd Street                                        1933
##  8 She Done Him Wrong                                 1933
##  9 It Happened One Night                              1934
## 10 Top Hat                                            1935
## # … with 3,797 more rows
```
…
Também podemos fazer operações com as colunas da base dentro da função filter. O código abaixo devolve uma tabela apenas com os filmes que lucraram.


```r
imdb %>% filter(receita - orcamento > 0)
```

```
## # A tibble: 1,761 x 15
##    titulo   ano diretor duracao cor   generos pais  classificacao orcamento
##    <chr>  <int> <chr>     <int> <chr> <chr>   <chr> <chr>             <int>
##  1 Avata…  2009 James …     178 Color Action… USA   A partir de … 237000000
##  2 Pirat…  2007 Gore V…     169 Color Action… USA   A partir de … 300000000
##  3 The D…  2012 Christ…     164 Color Action… USA   A partir de … 250000000
##  4 Spide…  2007 Sam Ra…     156 Color Action… USA   A partir de … 258000000
##  5 Aveng…  2015 Joss W…     141 Color Action… USA   A partir de … 250000000
##  6 Batma…  2016 Zack S…     183 Color Action… USA   A partir de … 250000000
##  7 Pirat…  2006 Gore V…     151 Color Action… USA   A partir de … 225000000
##  8 Man o…  2013 Zack S…     143 Color Action… USA   A partir de … 225000000
##  9 The A…  2012 Joss W…     173 Color Action… USA   A partir de … 220000000
## 10 The A…  2012 Marc W…     153 Color Action… USA   A partir de … 230000000
## # … with 1,751 more rows, and 6 more variables: receita <int>, nota_imdb <dbl>,
## #   likes_facebook <int>, ator_1 <chr>, ator_2 <chr>, ator_3 <chr>
```

Naturalmente, podemos filtrar colunas categóricas. O exemplo abaixo retorna uma tabela apenas com os filmes com a Angelina Jolie Pitt ou o Brad Pitt no papel principal.


```r
imdb %>%
  filter(ator_1 %in% c('Angelina Jolie Pitt', "Brad Pitt"))
```

```
## # A tibble: 29 x 15
##    titulo   ano diretor duracao cor   generos pais  classificacao orcamento
##    <chr>  <int> <chr>     <int> <chr> <chr>   <chr> <chr>             <int>
##  1 Malef…  2014 Robert…      97 Color Action… USA   Livre         180000000
##  2 The C…  2008 David …     166 Color Drama|… USA   A partir de … 150000000
##  3 Kung …  2011 Jennif…      90 Color Action… USA   Livre         150000000
##  4 Troy    2004 Wolfga…     196 Color Advent… USA   A partir de … 175000000
##  5 Kung …  2008 Mark O…      92 Color Action… USA   Livre         130000000
##  6 Salt    2010 Philli…     101 Color Action… USA   A partir de … 110000000
##  7 Ocean…  2004 Steven…     125 Color Crime|… USA   A partir de … 110000000
##  8 Mr. &…  2005 Doug L…     126 Color Action… USA   A partir de … 120000000
##  9 Lara …  2001 Simon …     100 Color Action… USA   A partir de … 115000000
## 10 Ocean…  2001 Steven…     116 Color Crime|… USA   A partir de …  85000000
## # … with 19 more rows, and 6 more variables: receita <int>, nota_imdb <dbl>,
## #   likes_facebook <int>, ator_1 <chr>, ator_2 <chr>, ator_3 <chr>
```
…
```
## [1]  TRUE  TRUE  TRUE  TRUE  TRUE FALSE
```

```r
# Aplicamos essa lógica dentro da função filter, para a coluna completa
imdb %>% filter(str_detect(generos, "Action"))
```

```
## # A tibble: 861 x 15
##    titulo   ano diretor duracao cor   generos pais  classificacao orcamento
##    <chr>  <int> <chr>     <int> <chr> <chr>   <chr> <chr>             <int>
##  1 Avata…  2009 James …     178 Color Action… USA   A partir de … 237000000
##  2 Pirat…  2007 Gore V…     169 Color Action… USA   A partir de … 300000000
##  3 The D…  2012 Christ…     164 Color Action… USA   A partir de … 250000000
##  4 John …  2012 Andrew…     132 Color Action… USA   A partir de … 263700000
##  5 Spide…  2007 Sam Ra…     156 Color Action… USA   A partir de … 258000000
##  6 Aveng…  2015 Joss W…     141 Color Action… USA   A partir de … 250000000
##  7 Batma…  2016 Zack S…     183 Color Action… USA   A partir de … 250000000
##  8 Super…  2006 Bryan …     169 Color Action… USA   A partir de … 209000000
##  9 Pirat…  2006 Gore V…     151 Color Action… USA   A partir de … 225000000
## 10 The L…  2013 Gore V…     150 Color Action… USA   A partir de … 215000000
## # … with 851 more rows, and 6 more variables: receita <int>, nota_imdb <dbl>,
## #   likes_facebook <int>, ator_1 <chr>, ator_2 <chr>, ator_3 <chr>
```
…
