…
```
## Warning: Expected 3 pieces. Missing pieces filled with `NA` in 5093 rows [3, 4,
## 6, 8, 9, 10, 18, 20, 22, 23, 24, 26, 28, 37, 38, 40, 41, 44, 45, 47, ...].
```

```
## # A tibble: 11,340 × 22
##    id_filme  titulo    ano data_lancamento genero1 genero2 genero3 duracao pais 
##    <chr>     <chr>   <dbl> <chr>           <chr>   <chr>   <chr>     <dbl> <chr>
##  1 tt0092699 Broadc…  1987 1988-04-01      Comedy  " Dram… " Roma…     133 USA  
##  2 tt0037931 Murder…  1945 1945-06-23      Comedy  " Crim… " Myst…      91 USA  
##  3 tt0183505 Me, My…  2000 2000-09-08      Comedy   <NA>    <NA>       116 USA  
##  4 tt0033945 Never …  1941 1947-05-02      Comedy  " Musi…  <NA>        71 USA  
##  5 tt0372122 Adam &…  2005 2007-05-17      Comedy  " Dram… " Musi…      99 USA  
##  6 tt3703836 Henry …  2015 2016-01-08      Drama    <NA>    <NA>        87 USA  
##  7 tt0093640 No Way…  1987 1987-12-11      Action  " Crim… " Dram…     114 USA  
##  8 tt0494652 Welcom…  2008 2008-02-08      Comedy  " Roma…  <NA>       104 USA  
##  9 tt0094006 Some K…  1987 1988-01-13      Drama   " Roma…  <NA>        95 USA  
## 10 tt1142798 The Fa…  2008 2008-09-12      Drama    <NA>    <NA>       111 USA  
## # … with 11,330 more rows, and 13 more variables: idioma <chr>,
## #   orcamento <dbl>, receita <dbl>, receita_eua <dbl>, nota_imdb <dbl>,
## #   num_avaliacoes <dbl>, direcao <chr>, roteiro <chr>, producao <chr>,
## #   elenco <chr>, descricao <chr>, num_criticas_publico <dbl>,
## #   num_criticas_critica <dbl>
```
…
```
## Warning: Expected 3 pieces. Missing pieces filled with `NA` in 15 rows [226,
## 1178, 1767, 3536, 3900, 4188, 4706, 5557, 5591, 6030, 7475, 7579, 8190, 8376,
## 9649].
```

```r
imdb_atuacao
```

```
## # A tibble: 11,340 × 22
##    id_filme  titulo   ano data_lancamento generos duracao pais  idioma orcamento
##    <chr>     <chr>  <dbl> <chr>           <chr>     <dbl> <chr> <chr>      <dbl>
##  1 tt0092699 Broad…  1987 1988-04-01      Comedy…     133 USA   Engli…  20000000
##  2 tt0037931 Murde…  1945 1945-06-23      Comedy…      91 USA   Engli…        NA
##  3 tt0183505 Me, M…  2000 2000-09-08      Comedy      116 USA   Engli…  51000000
##  4 tt0033945 Never…  1941 1947-05-02      Comedy…      71 USA   Engli…        NA
##  5 tt0372122 Adam …  2005 2007-05-17      Comedy…      99 USA   Engli…        NA
##  6 tt3703836 Henry…  2015 2016-01-08      Drama        87 USA   Engli…        NA
##  7 tt0093640 No Wa…  1987 1987-12-11      Action…     114 USA   Engli…  15000000
##  8 tt0494652 Welco…  2008 2008-02-08      Comedy…     104 USA   Engli…  35000000
##  9 tt0094006 Some …  1987 1988-01-13      Drama,…      95 USA   Engli…        NA
## 10 tt1142798 The F…  2008 2008-09-12      Drama       111 USA   Engli…        NA
## # … with 11,330 more rows, and 13 more variables: receita <dbl>,
## #   receita_eua <dbl>, nota_imdb <dbl>, num_avaliacoes <dbl>, direcao <chr>,
## #   roteiro <chr>, producao <chr>, atuacao1 <chr>, atuacao2 <chr>,
## #   atuacao3 <chr>, descricao <chr>, num_criticas_publico <dbl>,
## #   num_criticas_critica <dbl>
```
…
Veja que agora a coluna `atuacao_principal` possui os 3 atores concatenados. Se a ordem das colunas `atuacao1`, `atuacao2` e `atuacao3` nos trazia a informação de protagonismo, essa informação passa a ficar implícita nesse novo formato. As 3 colunas originais são removidas da base resultante.


```r
imdb_atuacao %>% 
  unite(
    col = "atuacao_principal",
    starts_with("atuacao"), 
    sep = " - "
  ) %>% 
  select(atuacao_principal)
```

```
## # A tibble: 11,340 × 1
##    atuacao_principal                                    
##    <chr>                                                
##  1 William Hurt -  Albert Brooks -  Holly Hunter        
##  2 Fred MacMurray -  Helen Walker -  Marjorie Main      
##  3 Jim Carrey -  Renée Zellweger -  Anthony Anderson    
##  4 W.C. Fields -  Gloria Jean -  Leon Errol             
##  5 Malcolm Gets -  Cary Curran -  Craig Chester         
##  6 Cole Doman -  Joe Keery -  Elizabeth Laidlaw         
##  7 Kevin Costner -  Gene Hackman -  Sean Young          
##  8 Martin Lawrence -  James Earl Jones -  Margaret Avery
##  9 Eric Stoltz -  Mary Stuart Masterson -  Lea Thompson 
## 10 Alfre Woodard -  Sanaa Lathan -  Rockmond Dunbar     
## # … with 11,330 more rows
```
…
Essa tabela possui a receita média dos filmes de romance e terror nos anos de 2010 a 2016.

Para apresentar essa tabela em uma reunião, por exemplo, pode ficar ser mais agradável ter os anos nas colunas e não nas linhas. Para isso, basta utilizarmos a função `pivot_wider()`.


```r
# Tabela original
tab_romance_terror
```

```
## # A tibble: 22 × 3
## # Groups:   ano [11]
##      ano genero  receita_media
##    <dbl> <chr>           <dbl>
##  1  2010 Horror      35186671.
##  2  2010 Romance     56885184.
##  3  2011 Horror      20176100.
##  4  2011 Romance     51856138.
##  5  2012 Horror      19722687.
##  6  2012 Romance     33651867.
##  7  2013 Horror      26271101.
##  8  2013 Romance     22546610.
##  9  2014 Horror      20623813.
## 10  2014 Romance     28482653.
## # … with 12 more rows
```
…
<img src="073-tidyr_files/figure-html/unnamed-chunk-19-1.png" width="480" style="display: block; margin: auto;" />

A função `unnest()` remove a estrutura de *list column*. Fazendo a operação abaixo, voltamos para a base `imdb` original.


```r
imdb_nest %>%
  unnest(cols = "data")
```

```
## # A tibble: 11,340 × 20
## # Groups:   ano [108]
##      ano id_filme  titulo data_lancamento generos duracao pais  idioma orcamento
##    <dbl> <chr>     <chr>  <chr>           <chr>     <dbl> <chr> <chr>      <dbl>
##  1  1914 tt0004707 Tilli… 1914-12-21      Comedy       82 USA   None,…     50000
##  2  1914 tt0004181 Judit… 1914-03-08      Drama        61 USA   Engli…     40000
##  3  1914 tt0003643 The A… 1914-08-24      Crime,…      78 USA   Engli…        NA
##  4  1915 tt0005960 The R… 1915-09-13      Biogra…      72 USA   Engli…        NA
##  5  1915 tt0005078 The C… 1915-12-13      Drama,…      59 USA   Engli…     17311
##  6  1915 tt0004972 The B… 1915-03-21      Drama,…     195 USA   None      100000
##  7  1916 tt0006864 Intol… 1918-02-24      Drama,…     163 USA   Engli…    385907
##  8  1916 tt0006333 20,00… 1916-12-24      Action…     105 USA   Engli…    200000
##  9  1917 tt0008443 The P… 1917-03-05      Comedy…      65 USA   Engli…        NA
## 10  1918 tt0009611 Shoul… 1918-10-27      Comedy…      45 USA   None,…        NA
## # … with 11,330 more rows, and 11 more variables: receita <dbl>,
## #   receita_eua <dbl>, nota_imdb <dbl>, num_avaliacoes <dbl>, direcao <chr>,
## #   roteiro <chr>, producao <chr>, elenco <chr>, descricao <chr>,
## #   num_criticas_publico <dbl>, num_criticas_critica <dbl>
```
…
