13.6 O pacote lubridate | Ciência de Dados em R
…
            Ciência de Dados em R

13.6 O pacote lubridate

library(dplyr)
library(lubridate)
library(ggplot2)

lakers <- tibble::as_tibble(lakers)

1. Repare que a coluna date no data.frame é um vetor de inteiros. Transforme essa coluna em um vetor de valores com classe date.

lakers %>% 
  mutate(date = ymd(date))
## # A tibble: 34,624 x 13
##    date       opponent game_type time  period etype  team  player  result points
##    <date>     <chr>    <chr>     <chr>  <int> <chr>  <chr> <chr>   <chr>   <int>
##  1 2008-10-28 POR      home      12:00      1 jump … OFF   ""      ""          0
##  2 2008-10-28 POR      home      11:39      1 shot   LAL   "Pau G… "miss…      0
##  3 2008-10-28 POR      home      11:37      1 rebou… LAL   "Vladi… ""          0
##  4 2008-10-28 POR      home      11:25      1 shot   LAL   "Derek… "miss…      0
##  5 2008-10-28 POR      home      11:23      1 rebou… LAL   "Pau G… ""          0
##  6 2008-10-28 POR      home      11:22      1 shot   LAL   "Pau G… "made"      2
##  7 2008-10-28 POR      home      11:22      1 foul   POR   "Greg … ""          0
##  8 2008-10-28 POR      home      11:22      1 free … LAL   "Pau G… "made"      1
##  9 2008-10-28 POR      home      11:00      1 foul   LAL   "Vladi… ""          0
## 10 2008-10-28 POR      home      10:53      1 shot   POR   "LaMar… "made"      2
## # … with 34,614 more rows, and 3 more variables: type <chr>, x <int>, y <int>

Repare que as_date() não funciona neste caso.

lakers %>%
  mutate(date = as_date(date))
## # A tibble: 34,624 x 13
##    date       opponent game_type time  period etype  team  player  result points
##    <date>     <chr>    <chr>     <chr>  <int> <chr>  <chr> <chr>   <chr>   <int>
##  1 56949-12-27 POR      home      12:00      1 jump … OFF   ""      ""          0
##  2 56949-12-27 POR      home      11:39      1 shot   LAL   "Pau G… "miss…      0
##  3 56949-12-27 POR      home      11:37      1 rebou… LAL   "Vladi… ""          0
##  4 56949-12-27 POR      home      11:25      1 shot   LAL   "Derek… "miss…      0
##  5 56949-12-27 POR      home      11:23      1 rebou… LAL   "Pau G… ""          0
##  6 56949-12-27 POR      home      11:22      1 shot   LAL   "Pau G… "made"      2
##  7 56949-12-27 POR      home      11:22      1 foul   POR   "Greg … ""          0
##  8 56949-12-27 POR      home      11:22      1 free … LAL   "Pau G… "made"      1
##  9 56949-12-27 POR      home      11:00      1 foul   LAL   "Vladi… ""          0
## 10 56949-12-27 POR      home      10:53      1 shot   POR   "LaMar… "made"      2
## # … with 34,614 more rows, and 3 more variables: type <chr>, x <int>, y <int>
…
as_date(0)
## [1] "1970-01-01"
as_date(-3:3)
## [1] "1969-12-29" "1969-12-30" "1969-12-31" "1970-01-01" "1970-01-02"
## [6] "1970-01-03" "1970-01-04"
as_date(20081027:20081029)
## [1] "56949-12-26" "56949-12-27" "56949-12-28"

2. Crie uma coluna que junte as informações de data e hora (colunas date e time) em objetos da classe date.

lakers %>% 
  mutate(date_time = paste0(date, " 00:", time) %>% ymd_hms) %>% 
  select(date_time)
## # A tibble: 34,624 x 1
##    date_time          
##    <dttm>             
##  1 2008-10-28 00:12:00
##  2 2008-10-28 00:11:39
##  3 2008-10-28 00:11:37
##  4 2008-10-28 00:11:25
##  5 2008-10-28 00:11:23
##  6 2008-10-28 00:11:22
##  7 2008-10-28 00:11:22
##  8 2008-10-28 00:11:22
##  9 2008-10-28 00:11:00
## 10 2008-10-28 00:10:53
## # … with 34,614 more rows

3. Crie as colunas dia, mes e ano com as respectivas informações sobre a data do jogo.

lakers %>%
  mutate(
    date = ymd(date),
    dia = day(date),
    mes = month(date),
    ano = year(date)
  ) %>% 
  select(date, dia, mes, ano)
## # A tibble: 34,624 x 4
##    date         dia   mes   ano
##    <date>     <int> <dbl> <dbl>
##  1 2008-10-28    28    10  2008
##  2 2008-10-28    28    10  2008
##  3 2008-10-28    28    10  2008
##  4 2008-10-28    28    10  2008
##  5 2008-10-28    28    10  2008
##  6 2008-10-28    28    10  2008
##  7 2008-10-28    28    10  2008
##  8 2008-10-28    28    10  2008
##  9 2008-10-28    28    10  2008
## 10 2008-10-28    28    10  2008
## # … with 34,614 more rows
…
