7.2 O pacote dplyr | Ciência de Dados em R
…
É possível trabalhar com diferentes fontes de dados, como bases relacionais (SQL) e data.table.

Se você ainda não tiver o dplyr instalado, rode o código abaixo.

install.packages("dplyr")
library(dplyr)

Neste capítulo, vamos trabalhar com uma base de filmes do IMDB. Essa base pode ser baixada clicando aqui.

Assim, utilizaremos o objeto imdb para acessar os dados.

imdb <- readr::read_rds("imdb.rds")
imdb

## # A tibble: 11,340 × 20
##    id_filme  titulo   ano data_lancamento generos duracao pais  idioma orcamento
##    <chr>     <chr>  <dbl> <chr>           <chr>     <dbl> <chr> <chr>      <dbl>
##  1 tt0092699 Broad…  1987 1988-04-01      Comedy…     133 USA   Engli…  20000000
##  2 tt0037931 Murde…  1945 1945-06-23      Comedy…      91 USA   Engli…        NA
##  3 tt0183505 Me, M…  2000 2000-09-08      Comedy      116 USA   Engli…  51000000
##  4 tt0033945 Never…  1941 1947-05-02      Comedy…      71 USA   Engli…        NA
##  5 tt0372122 Adam …  2005 2007-05-17      Comedy…      99 USA   Engli…        NA
##  6 tt3703836 Henry…  2015 2016-01-08      Drama        87 USA   Engli…        NA
##  7 tt0093640 No Wa…  1987 1987-12-11      Action…     114 USA   Engli…  15000000
##  8 tt0494652 Welco…  2008 2008-02-08      Comedy…     104 USA   Engli…  35000000
##  9 tt0094006 Some …  1987 1988-01-13      Drama,…      95 USA   Engli…        NA
## 10 tt1142798 The F…  2008 2008-09-12      Drama       111 USA   Engli…        NA
## # … with 11,330 more rows, and 11 more variables: receita <dbl>,
## #   receita_eua <dbl>, nota_imdb <dbl>, num_avaliacoes <dbl>, direcao <chr>,
## #   roteiro <chr>, producao <chr>, elenco <chr>, descricao <chr>,
## #   num_criticas_publico <dbl>, num_criticas_critica <dbl>

Agora, vamos avaliar com mais detalhes as principais funções do pacote dplyr.

7.2.1 Selecionando colunas

Para selecionar colunas, utilizamos a função select().

O primeiro argumento da função é a base de dados e os demais argumentos são os nomes das colunas que você gostaria de selecionar. Repare que você não precisa colocar o nome da coluna entre aspas.

select(imdb, titulo)

## # A tibble: 11,340 × 1
##    titulo                           
##    <chr>                            
##  1 Broadcast News                   
##  2 Murder, He Says                  
##  3 Me, Myself & Irene               
##  4 Never Give a Sucker an Even Break
##  5 Adam & Steve                     
##  6 Henry Gamble's Birthday Party    
##  7 No Way Out                       
##  8 Welcome Home, Roscoe Jenkins     
##  9 Some Kind of Wonderful           
## 10 The Family That Preys            
## # … with 11,330 more rows

Você também pode selecionar várias colunas.

select(imdb, titulo, ano, orcamento)

## # A tibble: 11,340 × 3
##    titulo                              ano orcamento
##    <chr>                             <dbl>     <dbl>
##  1 Broadcast News                     1987  20000000
##  2 Murder, He Says                    1945        NA
##  3 Me, Myself & Irene                 2000  51000000
##  4 Never Give a Sucker an Even Break  1941        NA
##  5 Adam & Steve                       2005        NA
##  6 Henry Gamble's Birthday Party      2015        NA
##  7 No Way Out                         1987  15000000
##  8 Welcome Home, Roscoe Jenkins       2008  35000000
##  9 Some Kind of Wonderful             1987        NA
## 10 The Family That Preys              2008        NA
## # … with 11,330 more rows

O operador : é muito útil para selecionar colunas consecutivas.

select(imdb, titulo:generos)

## # A tibble: 11,340 × 4
##    titulo                              ano data_lancamento generos              
##    <chr>                             <dbl> <chr>           <chr>                
##  1 Broadcast News                     1987 1988-04-01      Comedy, Drama, Roman…
##  2 Murder, He Says                    1945 1945-06-23      Comedy, Crime, Myste…
##  3 Me, Myself & Irene                 2000 2000-09-08      Comedy               
##  4 Never Give a Sucker an Even Break  1941 1947-05-02      Comedy, Musical      
##  5 Adam & Steve                       2005 2007-05-17      Comedy, Drama, Music 
##  6 Henry Gamble's Birthday Party      2015 2016-01-08      Drama                
##  7 No Way Out                         1987 1987-12-11      Action, Crime, Drama 
##  8 Welcome Home, Roscoe Jenkins       2008 2008-02-08      Comedy, Romance      
##  9 Some Kind of Wonderful             1987 1988-01-13      Drama, Romance       
## 10 The Family That Preys              2008 2008-09-12      Drama                
## # … with 11,330 more rows

O dplyr possui um conjunto de funções auxiliares muito úteis para seleção de colunas. As principais são:

starts_with(): para colunas que começam com um texto padrão

ends_with(): para colunas que terminam com um texto padrão

contains(): para colunas que contêm um texto padrão

Selecionamos a seguir todas as colunas que começam com o texto “num”.

select(imdb, starts_with("num"))

## # A tibble: 11,340 × 3
##    num_avaliacoes num_criticas_publico num_criticas_critica
##             <dbl>                <dbl>                <dbl>
##  1          26257                  142                   62
##  2           1639                   35                   10
##  3         219069                  502                  161
##  4           2108                   35                   18
##  5           2953                   48                   15
##  6           2364                   26                   14
##  7          34513                  125                   72
##  8          13315                   45                   74
##  9          27065                  145                   55
## 10           6703                   52                   29
## # … with 11,330 more rows

Para retirar colunas da base, base acrescentar um - antes da seleção.

select(imdb, -ano, -direcao)

## # A tibble: 11,340 × 18
##    id_filme  titulo       data_lancamento generos duracao pais  idioma orcamento
##    <chr>     <chr>        <chr>           <chr>     <dbl> <chr> <chr>      <dbl>
##  1 tt0092699 Broadcast N… 1988-04-01      Comedy…     133 USA   Engli…  20000000
##  2 tt0037931 Murder, He … 1945-06-23      Comedy…      91 USA   Engli…        NA
##  3 tt0183505 Me, Myself … 2000-09-08      Comedy      116 USA   Engli…  51000000
##  4 tt0033945 Never Give … 1947-05-02      Comedy…      71 USA   Engli…        NA
##  5 tt0372122 Adam & Steve 2007-05-17      Comedy…      99 USA   Engli…        NA
##  6 tt3703836 Henry Gambl… 2016-01-08      Drama        87 USA   Engli…        NA
##  7 tt0093640 No Way Out   1987-12-11      Action…     114 USA   Engli…  15000000
##  8 tt0494652 Welcome Hom… 2008-02-08      Comedy…     104 USA   Engli…  35000000
##  9 tt0094006 Some Kind o… 1988-01-13      Drama,…      95 USA   Engli…        NA
## 10 tt1142798 The Family … 2008-09-12      Drama       111 USA   Engli…        NA
## # … with 11,330 more rows, and 10 more variables: receita <dbl>,
## #   receita_eua <dbl>, nota_imdb <dbl>, num_avaliacoes <dbl>, roteiro <chr>,
## #   producao <chr>, elenco <chr>, descricao <chr>, num_criticas_publico <dbl>,
## #   num_criticas_critica <dbl>

select(imdb, -starts_with("num"))

## # A tibble: 11,340 × 17
##    id_filme  titulo   ano data_lancamento generos duracao pais  idioma orcamento
##    <chr>     <chr>  <dbl> <chr>           <chr>     <dbl> <chr> <chr>      <dbl>
##  1 tt0092699 Broad…  1987 1988-04-01      Comedy…     133 USA   Engli…  20000000
##  2 tt0037931 Murde…  1945 1945-06-23      Comedy…      91 USA   Engli…        NA
##  3 tt0183505 Me, M…  2000 2000-09-08      Comedy      116 USA   Engli…  51000000
##  4 tt0033945 Never…  1941 1947-05-02      Comedy…      71 USA   Engli…        NA
##  5 tt0372122 Adam …  2005 2007-05-17      Comedy…      99 USA   Engli…        NA
##  6 tt3703836 Henry…  2015 2016-01-08      Drama        87 USA   Engli…        NA
##  7 tt0093640 No Wa…  1987 1987-12-11      Action…     114 USA   Engli…  15000000
##  8 tt0494652 Welco…  2008 2008-02-08      Comedy…     104 USA   Engli…  35000000
##  9 tt0094006 Some …  1987 1988-01-13      Drama,…      95 USA   Engli…        NA
## 10 tt1142798 The F…  2008 2008-09-12      Drama       111 USA   Engli…        NA
## # … with 11,330 more rows, and 8 more variables: receita <dbl>,
## #   receita_eua <dbl>, nota_imdb <dbl>, direcao <chr>, roteiro <chr>,
## #   producao <chr>, elenco <chr>, descricao <chr>
…
1. Teste aplicar a função glimpse() do pacote {dplyr} à base imdb. O que ela faz?

2. Crie uma tabela com apenas as colunas titulo, direcao, e orcamento. Salve em um objeto chamado imdb_simples.

3. Selecione apenas as colunas duracao, direcao, descricao e producao usando a função auxiliar contains().

4. Usando a função select() (e suas funções auxiliares), escreva códigos que retornem a base IMDB sem as colunas num_avaliacoes, num_criticas_publico e num_criticas_critica. Escreva todas as soluções diferentes que você conseguir pensar.

7.2.2 Ordenando a base

Para ordenar linhas, utilizamos a função arrange(). O primeiro argumento é a base de dados. Os demais argumentos são as colunas pelas quais queremos ordenar as linhas. No exemplo a seguir, ordenamos as linhas da base por ordem crescente de orçamento.

arrange(imdb, orcamento)

## # A tibble: 11,340 × 20
##    id_filme  titulo   ano data_lancamento generos duracao pais  idioma orcamento
##    <chr>     <chr>  <dbl> <chr>           <chr>     <dbl> <chr> <chr>      <dbl>
##  1 tt5345298 Patie…  2016 2016-10-11      Horror      116 USA   Icela…         0
##  2 tt7692822 Driven  2019 2019-02-09      Comedy…      90 USA   Engli…         0
##  3 tt3748918 To Yo…  2019 2020-03-17      Animat…      91 USA   Engli…         1
##  4 tt8196068 Twist…  2018 2018-10-03      Drama,…      89 USA   Engli…         3
##  5 tt0772152 Amate…  2006 2006-07-30      Crime,…      71 USA   Engli…        45
##  6 tt1260680 Pathf…  2011 2011-01-11      Action…     100 USA   Engli…        50
##  7 tt1701224 My Na…  2012 2012-10-19      Crime,…      90 USA   Frenc…       300
##  8 tt0054880 Flami…  1963 1963-04-29      Comedy…      45 USA   Engli…       300
##  9 tt1980185 Memor…  2012 2014-03-10      Crime,…      70 USA   Engli…       300
## 10 tt5009236 King …  2015 2015-03-27      Biogra…      46 USA   Engli…       500
## # … with 11,330 more rows, and 11 more variables: receita <dbl>,
## #   receita_eua <dbl>, nota_imdb <dbl>, num_avaliacoes <dbl>, direcao <chr>,
## #   roteiro <chr>, producao <chr>, elenco <chr>, descricao <chr>,
## #   num_criticas_publico <dbl>, num_criticas_critica <dbl>

Também podemos ordenar de forma decrescente usando a função desc().

arrange(imdb, desc(orcamento))

## # A tibble: 11,340 × 20
##    id_filme  titulo   ano data_lancamento generos duracao pais  idioma orcamento
##    <chr>     <chr>  <dbl> <chr>           <chr>     <dbl> <chr> <chr>      <dbl>
##  1 tt4154796 Aveng…  2019 2019-04-24      Action…     181 USA   Engli… 356000000
##  2 tt4154756 Aveng…  2018 2018-04-25      Action…     149 USA   Engli… 321000000
##  3 tt2527336 Star …  2017 2017-12-13      Action…     152 USA   Engli… 317000000
##  4 tt0449088 Pirat…  2007 2007-05-23      Action…     169 USA   Engli… 300000000
##  5 tt2527338 Star …  2019 2019-12-18      Action…     141 USA   Engli… 275000000
##  6 tt3778644 Solo:…  2018 2018-05-23      Action…     135 USA   Engli… 275000000
##  7 tt0348150 Super…  2006 2006-09-01      Action…     154 USA   Engli… 270000000
##  8 tt0398286 Tangl…  2010 2010-11-26      Animat…     100 USA   Engli… 260000000
##  9 tt0413300 Spide…  2007 2007-05-01      Action…     139 USA   Engli… 258000000
## 10 tt2975590 Batma…  2016 2016-03-23      Action…     152 USA   Engli… 250000000
## # … with 11,330 more rows, and 11 more variables: receita <dbl>,
## #   receita_eua <dbl>, nota_imdb <dbl>, num_avaliacoes <dbl>, direcao <chr>,
## #   roteiro <chr>, producao <chr>, elenco <chr>, descricao <chr>,
## #   num_criticas_publico <dbl>, num_criticas_critica <dbl>

E claro, ordenar segundo duas ou mais colunas.

arrange(imdb, desc(ano), desc(orcamento))

## # A tibble: 11,340 × 20
##    id_filme  titulo   ano data_lancamento generos duracao pais  idioma orcamento
##    <chr>     <chr>  <dbl> <chr>           <chr>     <dbl> <chr> <chr>      <dbl>
##  1 tt6587640 Troll…  2020 2020-04-10      Animat…      90 USA   Engli…  90000000
##  2 tt7713068 Birds…  2020 2020-02-06      Action…     109 USA   Engli…  84500000
##  3 tt5774060 Under…  2020 2020-01-30      Action…      95 USA   Engli…  80000000
##  4 tt6820324 Timmy…  2020 2020-03-24      Advent…      99 USA   Engli…  45000000
##  5 tt1634106 Blood…  2020 2020-03-27      Action…     109 USA   Engli…  45000000
##  6 tt100595… Unhin…  2020 2020-09-24      Action…      90 USA   Engli…  33000000
##  7 tt8461224 The T…  2020 2020-08-07      Action…      95 USA   Engli…  30000000
##  8 tt103089… Force…  2020 2020-06-30      Action…      91 USA   Engli…  23000000
##  9 tt4411584 The S…  2020 2020-07-31      Drama,…     107 USA   Engli…  21000000
## 10 tt8244784 The H…  2020 2020-03-24      Action…      90 USA   Engli…  14000000
## # … with 11,330 more rows, and 11 more variables: receita <dbl>,
## #   receita_eua <dbl>, nota_imdb <dbl>, num_avaliacoes <dbl>, direcao <chr>,
## #   roteiro <chr>, producao <chr>, elenco <chr>, descricao <chr>,
## #   num_criticas_publico <dbl>, num_criticas_critica <dbl>
Exercícios

Utilize a base imdb nos exercícios a seguir.

1. Ordene os filmes em ordem crescente de ano e decrescente de receita e salve em um objeto chamado filmes_ordenados.

2. Selecione apenas as colunas titulo e orcamento e então ordene de forma decrescente pelo orcamento.

7.2.3 O pipe em ação

Na grande maioria dos casos, vamos aplicar mais de uma função de manipulação em uma base para obtermos a tabela que desejamos. Poderíamos, por exemplo, querer uma tabela apenas com o título e ano dos filmes, ordenada de forma crescente de lançamento. Para fazer isso, poderíamos aninhar as funções

arrange(select(imdb, titulo, ano), ano)

## # A tibble: 11,340 × 2
##    titulo                                              ano
##    <chr>                                             <dbl>
##  1 Tillie's Punctured Romance                         1914
##  2 Judith of Bethulia                                 1914
##  3 The Avenging Conscience: or 'Thou Shalt Not Kill'  1914
##  4 The Regeneration                                   1915
##  5 The Cheat                                          1915
##  6 The Birth of a Nation                              1915
##  7 Intolerance: Love's Struggle Throughout the Ages   1916
##  8 20,000 Leagues Under the Sea                       1916
##  9 The Poor Little Rich Girl                          1917
## 10 Shoulder Arms                                      1918
## # … with 11,330 more rows

ou criar um objeto intermediário

tab_titulo_ano <- select(imdb, titulo, ano)

arrange(tab_titulo_ano, ano)

## # A tibble: 11,340 × 2
##    titulo                                              ano
##    <chr>                                             <dbl>
##  1 Tillie's Punctured Romance                         1914
##  2 Judith of Bethulia                                 1914
##  3 The Avenging Conscience: or 'Thou Shalt Not Kill'  1914
##  4 The Regeneration                                   1915
##  5 The Cheat                                          1915
##  6 The Birth of a Nation                              1915
##  7 Intolerance: Love's Struggle Throughout the Ages   1916
##  8 20,000 Leagues Under the Sea                       1916
##  9 The Poor Little Rich Girl                          1917
## 10 Shoulder Arms                                      1918
## # … with 11,330 more rows

Os dois códigos funcionam e levam ao mesmo resultado, mas não são muito bons.

A primeira alternativa é ruim de escrever (já que precisamos escrever primeiro a função que roda por último) e de ler (pois é difícil identificar qual argumento pertence a qual função).

A segunda alternativa também é ruim, pois exige a criação de objetos auxiliares. Se quiséssimos aplicar 10 operações na base, precisaríamos criar 9 objetos intermediários.

A solução para aplicar diversas operações de manipulação em uma base de dados é aplicar o operador pipe: %>%.

imdb %>% 
  select(titulo, ano) %>% 
  arrange(ano)

## # A tibble: 11,340 × 2
##    titulo                                              ano
##    <chr>                                             <dbl>
##  1 Tillie's Punctured Romance                         1914
##  2 Judith of Bethulia                                 1914
##  3 The Avenging Conscience: or 'Thou Shalt Not Kill'  1914
##  4 The Regeneration                                   1915
##  5 The Cheat                                          1915
##  6 The Birth of a Nation                              1915
##  7 Intolerance: Love's Struggle Throughout the Ages   1916
##  8 20,000 Leagues Under the Sea                       1916
##  9 The Poor Little Rich Girl                          1917
## 10 Shoulder Arms                                      1918
## # … with 11,330 more rows
…
Também podemos fazer operações com as colunas da base dentro da função filter. O código abaixo devolve uma tabela apenas com os filmes que lucraram.

imdb %>% filter(receita - orcamento > 0)

## # A tibble: 2,541 × 20
##    id_filme  titulo   ano data_lancamento generos duracao pais  idioma orcamento
##    <chr>     <chr>  <dbl> <chr>           <chr>     <dbl> <chr> <chr>      <dbl>
##  1 tt0092699 Broad…  1987 1988-04-01      Comedy…     133 USA   Engli…  20000000
##  2 tt0183505 Me, M…  2000 2000-09-08      Comedy      116 USA   Engli…  51000000
##  3 tt0093640 No Wa…  1987 1987-12-11      Action…     114 USA   Engli…  15000000
##  4 tt0494652 Welco…  2008 2008-02-08      Comedy…     104 USA   Engli…  35000000
##  5 tt1488555 The C…  2011 2011-12-09      Comedy…     112 USA   Engli…  52000000
##  6 tt0090022 Silve…  1985 1986-01-16      Action…     133 USA   Engli…  26000000
##  7 tt0120434 Vegas…  1997 1997-02-14      Comedy       93 USA   Engli…  25000000
##  8 tt1086772 Blend…  2014 2014-07-02      Comedy…     117 USA   Engli…  40000000
##  9 tt0064115 Butch…  1969 1969-09-26      Biogra…     110 USA   Engli…   6000000
## 10 tt0441796 Stay …  2006 2006-03-24      Fantas…      85 USA   Engli…   7000000
## # … with 2,531 more rows, and 11 more variables: receita <dbl>,
## #   receita_eua <dbl>, nota_imdb <dbl>, num_avaliacoes <dbl>, direcao <chr>,
## #   roteiro <chr>, producao <chr>, elenco <chr>, descricao <chr>,
## #   num_criticas_publico <dbl>, num_criticas_critica <dbl>
…
