7.3 O pacote tidyr | Ciência de Dados em R
…
imdb <- readr::read_rds("assets/data/imdb.rds")

imdb_gather <- imdb %>%
  mutate(id = 1:n()) %>%
  gather(
    key = "importancia_ator",
    value = "nome_ator",
    ator_1, ator_2, ator_3
  ) %>%
  select(nome_ator, importancia_ator, everything())

imdb_gather

## # A tibble: 11,421 x 15
##    nome_ator  importancia_ator titulo    ano diretor duracao cor   generos pais 
##    <chr>      <chr>            <chr>   <int> <chr>     <int> <chr> <chr>   <chr>
##  1 CCH Pound… ator_1           Avatar   2009 James …     178 Color Action… USA  
##  2 Johnny De… ator_1           Pirate…  2007 Gore V…     169 Color Action… USA  
##  3 Tom Hardy  ator_1           The Da…  2012 Christ…     164 Color Action… USA  
##  4 Daryl Sab… ator_1           John C…  2012 Andrew…     132 Color Action… USA  
##  5 J.K. Simm… ator_1           Spider…  2007 Sam Ra…     156 Color Action… USA  
##  6 Brad Garr… ator_1           Tangle…  2010 Nathan…     100 Color Advent… USA  
##  7 Chris Hem… ator_1           Avenge…  2015 Joss W…     141 Color Action… USA  
##  8 Henry Cav… ator_1           Batman…  2016 Zack S…     183 Color Action… USA  
##  9 Kevin Spa… ator_1           Superm…  2006 Bryan …     169 Color Action… USA  
## 10 Johnny De… ator_1           Pirate…  2006 Gore V…     151 Color Action… USA  
## # … with 11,411 more rows, and 6 more variables: classificacao <chr>,
## #   orcamento <int>, receita <int>, nota_imdb <dbl>, likes_facebook <int>,
## #   id <int>

7.3.2 spread()

A função spread() é essencialmente o inverso da gather(). Ela espalha uma variável nas colunas.

imdb_spread <- imdb_gather %>%
  spread(
    key = importancia_ator,
    value = nome_ator
  )

imdb_spread

## # A tibble: 3,807 x 16
##    titulo     ano diretor  duracao cor   generos   pais  classificacao orcamento
##    <chr>    <int> <chr>      <int> <chr> <chr>     <chr> <chr>             <int>
##  1 Avatar    2009 James C…     178 Color Action|A… USA   A partir de … 237000000
##  2 Pirates…  2007 Gore Ve…     169 Color Action|A… USA   A partir de … 300000000
##  3 The Dar…  2012 Christo…     164 Color Action|T… USA   A partir de … 250000000
##  4 John Ca…  2012 Andrew …     132 Color Action|A… USA   A partir de … 263700000
##  5 Spider-…  2007 Sam Rai…     156 Color Action|A… USA   A partir de … 258000000
##  6 Tangled   2010 Nathan …     100 Color Adventur… USA   Livre         260000000
##  7 Avenger…  2015 Joss Wh…     141 Color Action|A… USA   A partir de … 250000000
##  8 Batman …  2016 Zack Sn…     183 Color Action|A… USA   A partir de … 250000000
##  9 Superma…  2006 Bryan S…     169 Color Action|A… USA   A partir de … 209000000
## 10 Pirates…  2006 Gore Ve…     151 Color Action|A… USA   A partir de … 225000000
## # … with 3,797 more rows, and 7 more variables: receita <int>, nota_imdb <dbl>,
## #   likes_facebook <int>, id <int>, ator_1 <chr>, ator_2 <chr>, ator_3 <chr>

7.3.3 Outras funções do tidyr

A função unite() junta duas ou mais colunas usando algum separador (_, por exemplo).

A função separate() faz o inverso de unite(): transforma uma coluna em várias usando um separador.

imdb %>%
  unite(
    col = "titulo_diretor",
    titulo, diretor,
    sep = " - "
  )

## # A tibble: 3,807 x 14
##    titulo_diretor      ano duracao cor   generos   pais  classificacao orcamento
##    <chr>             <int>   <int> <chr> <chr>     <chr> <chr>             <int>
##  1 Avatar  - James …  2009     178 Color Action|A… USA   A partir de … 237000000
##  2 Pirates of the C…  2007     169 Color Action|A… USA   A partir de … 300000000
##  3 The Dark Knight …  2012     164 Color Action|T… USA   A partir de … 250000000
##  4 John Carter  - A…  2012     132 Color Action|A… USA   A partir de … 263700000
##  5 Spider-Man 3  - …  2007     156 Color Action|A… USA   A partir de … 258000000
##  6 Tangled  - Natha…  2010     100 Color Adventur… USA   Livre         260000000
##  7 Avengers: Age of…  2015     141 Color Action|A… USA   A partir de … 250000000
##  8 Batman v Superma…  2016     183 Color Action|A… USA   A partir de … 250000000
##  9 Superman Returns…  2006     169 Color Action|A… USA   A partir de … 209000000
## 10 Pirates of the C…  2006     151 Color Action|A… USA   A partir de … 225000000
## # … with 3,797 more rows, and 6 more variables: receita <int>, nota_imdb <dbl>,
## #   likes_facebook <int>, ator_1 <chr>, ator_2 <chr>, ator_3 <chr>

imdb %>%
  separate(
    col = generos,
    into = c("genero_1", "genero_2", "genero_3"),
    sep = "\\|",
    extra = "drop"
  )

## # A tibble: 3,807 x 17
##    titulo           ano diretor   duracao cor   genero_1 genero_2 genero_3 pais 
##    <chr>          <int> <chr>       <int> <chr> <chr>    <chr>    <chr>    <chr>
##  1 Avatar          2009 James Ca…     178 Color Action   Adventu… Fantasy  USA  
##  2 Pirates of th…  2007 Gore Ver…     169 Color Action   Adventu… Fantasy  USA  
##  3 The Dark Knig…  2012 Christop…     164 Color Action   Thriller <NA>     USA  
##  4 John Carter     2012 Andrew S…     132 Color Action   Adventu… Sci-Fi   USA  
##  5 Spider-Man 3    2007 Sam Raimi     156 Color Action   Adventu… Romance  USA  
##  6 Tangled         2010 Nathan G…     100 Color Adventu… Animati… Comedy   USA  
##  7 Avengers: Age…  2015 Joss Whe…     141 Color Action   Adventu… Sci-Fi   USA  
##  8 Batman v Supe…  2016 Zack Sny…     183 Color Action   Adventu… Sci-Fi   USA  
##  9 Superman Retu…  2006 Bryan Si…     169 Color Action   Adventu… Sci-Fi   USA  
## 10 Pirates of th…  2006 Gore Ver…     151 Color Action   Adventu… Fantasy  USA  
## # … with 3,797 more rows, and 8 more variables: classificacao <chr>,
## #   orcamento <int>, receita <int>, nota_imdb <dbl>, likes_facebook <int>,
## #   ator_1 <chr>, ator_2 <chr>, ator_3 <chr>
…
