…
*A função `glimpse()` traz um resumo da base, contendo o número de linhas, colunas, o nome e tipo das colunas e as primeiras observações de cada coluna.*

**2.** Crie uma tabela com apenas as colunas `titulo`, `diretor`, e `orcamento.` Salve em um objeto chamado `imdb_simples`.


```r
imdb_simples <- select(imdb, titulo, diretor, orcamento)
imdb_simples
## # A tibble: 3,807 x 3
##    titulo                                      diretor           orcamento
##    <chr>                                       <chr>                 <dbl>
##  1 Avatar                                      James Cameron     237000000
##  2 Pirates of the Caribbean: At World's End    Gore Verbinski    300000000
##  3 The Dark Knight Rises                       Christopher Nolan 250000000
##  4 John Carter                                 Andrew Stanton    263700000
##  5 Spider-Man 3                                Sam Raimi         258000000
##  6 Tangled                                     Nathan Greno      260000000
##  7 Avengers: Age of Ultron                     Joss Whedon       250000000
##  8 Batman v Superman: Dawn of Justice          Zack Snyder       250000000
##  9 Superman Returns                            Bryan Singer      209000000
## 10 Pirates of the Caribbean: Dead Man's Chest  Gore Verbinski    225000000
## # … with 3,797 more rows
```


**3.** Selecione apenas as colunas `ator_1`, `ator_2` e `ator_3` usando o ajudante `contains()`.


```r
select(imdb, contains("ator"))
## # A tibble: 3,807 x 3
##    ator_1          ator_2            ator_3              
##    <chr>           <chr>             <chr>               
##  1 CCH Pounder     Joel David Moore  Wes Studi           
##  2 Johnny Depp     Orlando Bloom     Jack Davenport      
##  3 Tom Hardy       Christian Bale    Joseph Gordon-Levitt
##  4 Daryl Sabara    Samantha Morton   Polly Walker        
##  5 J.K. Simmons    James Franco      Kirsten Dunst       
##  6 Brad Garrett    Donna Murphy      M.C. Gainey         
##  7 Chris Hemsworth Robert Downey Jr. Scarlett Johansson  
##  8 Henry Cavill    Lauren Cohan      Alan D. Purwin      
##  9 Kevin Spacey    Marlon Brando     Frank Langella      
## 10 Johnny Depp     Orlando Bloom     Jack Davenport      
## # … with 3,797 more rows
```
…
### Filtrando linhas

Utilize a base `imdb` nos exercícios a seguir.

**1.** Crie um objeto chamado `filmes_pb` apenas com filmes preto e branco.


```r
# Vendo categorias da variável cor
unique(imdb$cor)
## [1] "Color"           "Black and White" NA

# Filtrando
imdb %>% filter(cor == "Black and White")
## # A tibble: 149 x 15
##    titulo   ano diretor duracao cor   generos pais  classificacao orcamento
##    <chr>  <dbl> <chr>     <dbl> <chr> <chr>   <chr> <chr>             <dbl>
##  1 Pearl…  2001 Michae…     184 Blac… Action… USA   A partir de … 140000000
##  2 The A…  2004 Martin…     170 Blac… Biogra… USA   A partir de … 110000000
##  3 Ali     2001 Michae…     165 Blac… Biogra… USA   A partir de … 107000000
##  4 Erago…  2006 Stefen…     104 Blac… Action… USA   Livre         100000000
##  5 Seabi…  2003 Gary R…     140 Blac… Drama|… USA   A partir de …  87000000
##  6 Bewit…    NA <NA>         25 Blac… Comedy… USA   Outros               NA
##  7 Nine    2009 Rob Ma…     118 Blac… Drama|… USA   A partir de …  80000000
##  8 The L…  2003 Stephe…     110 Blac… Action… USA   A partir de …  78000000
##  9 War H…  2011 Steven…     146 Blac… Drama|… USA   A partir de …  66000000
## 10 Space…  2000 Clint …     130 Blac… Action… USA   A partir de …  65000000
## # … with 139 more rows, and 6 more variables: receita <dbl>, nota_imdb <dbl>,
## #   likes_facebook <dbl>, ator_1 <chr>, ator_2 <chr>, ator_3 <chr>
```
…
**b.** filmes do "Woody Allen" ou do "Wes Anderson";


```r
imdb %>% 
  filter(diretor == "Woody Allen" | diretor == "Wes Anderson")
## # A tibble: 25 x 15
##    titulo   ano diretor duracao cor   generos pais  classificacao orcamento
##    <chr>  <dbl> <chr>     <dbl> <chr> <chr>   <chr> <chr>             <dbl>
##  1 The L…  2004 Wes An…     119 Color Advent… USA   A partir de …  50000000
##  2 Fanta…  2009 Wes An…      87 Color Advent… USA   Livre          40000000
##  3 The G…  2014 Wes An…      99 Color Advent… USA   A partir de …  25000000
##  4 The R…  2001 Wes An…     110 Color Comedy… USA   A partir de …  21000000
##  5 The C…  2001 Woody …     103 Color Comedy… USA   A partir de …  26000000
##  6 To Ro…  2012 Woody …     112 Color Comedy… USA   A partir de …  17000000
##  7 Bulle…  1994 Woody …      98 Color Comedy… USA   A partir de …  20000000
##  8 Decon…  1997 Woody …      96 Color Comedy  USA   A partir de …  20000000
##  9 Every…  1996 Woody …     101 Color Comedy… USA   A partir de …  20000000
## 10 Blue …  2013 Woody …      98 Color Drama   USA   A partir de …  18000000
## # … with 15 more rows, and 6 more variables: receita <dbl>, nota_imdb <dbl>,
## #   likes_facebook <dbl>, ator_1 <chr>, ator_2 <chr>, ator_3 <chr>
```


**c.** filmes do "Steven Spielberg" ordenados de forma decrescente por ano, mostrando apenas as colunas `titulo` e `ano`;


```r
imdb %>% 
  filter(diretor == "Steven Spielberg") %>% 
  arrange(desc(ano)) %>% 
  select(titulo, ano)
## # A tibble: 24 x 2
##    titulo                                                ano
##    <chr>                                               <dbl>
##  1 Bridge of Spies                                      2015
##  2 Lincoln                                              2012
##  3 The Adventures of Tintin                             2011
##  4 War Horse                                            2011
##  5 Indiana Jones and the Kingdom of the Crystal Skull   2008
##  6 War of the Worlds                                    2005
##  7 The Terminal                                         2004
##  8 Minority Report                                      2002
##  9 Catch Me If You Can                                  2002
## 10 A.I. Artificial Intelligence                         2001
## # … with 14 more rows
```


**d.**  filmes que tenham "Action" **ou** "Comedy" entre os seus gêneros;


```r
library(stringr)

# Solução 1
imdb %>% 
  filter(str_detect(generos, "Action") | str_detect(generos, "Comedy"))
## # A tibble: 2,187 x 15
##    titulo   ano diretor duracao cor   generos pais  classificacao orcamento
##    <chr>  <dbl> <chr>     <dbl> <chr> <chr>   <chr> <chr>             <dbl>
##  1 Avata…  2009 James …     178 Color Action… USA   A partir de … 237000000
##  2 Pirat…  2007 Gore V…     169 Color Action… USA   A partir de … 300000000
##  3 The D…  2012 Christ…     164 Color Action… USA   A partir de … 250000000
##  4 John …  2012 Andrew…     132 Color Action… USA   A partir de … 263700000
##  5 Spide…  2007 Sam Ra…     156 Color Action… USA   A partir de … 258000000
##  6 Tangl…  2010 Nathan…     100 Color Advent… USA   Livre         260000000
##  7 Aveng…  2015 Joss W…     141 Color Action… USA   A partir de … 250000000
##  8 Batma…  2016 Zack S…     183 Color Action… USA   A partir de … 250000000
##  9 Super…  2006 Bryan …     169 Color Action… USA   A partir de … 209000000
## 10 Pirat…  2006 Gore V…     151 Color Action… USA   A partir de … 225000000
## # … with 2,177 more rows, and 6 more variables: receita <dbl>, nota_imdb <dbl>,
## #   likes_facebook <dbl>, ator_1 <chr>, ator_2 <chr>, ator_3 <chr>
```

**e.** filmes que tenham "Action" **e** "Comedy" entre os seus gêneros e tenha `nota_imdb` maior que 8;


```r
imdb %>% 
  filter(str_detect(generos, "Action"), str_detect(generos, "Comedy"))
## # A tibble: 203 x 15
##    titulo   ano diretor duracao cor   generos pais  classificacao orcamento
##    <chr>  <dbl> <chr>     <dbl> <chr> <chr>   <chr> <chr>             <dbl>
##  1 Men i…  2012 Barry …     106 Color Action… USA   A partir de … 225000000
##  2 Rush …  2007 Brett …      91 Color Action… USA   A partir de … 140000000
##  3 Monst…  2009 Rob Le…      94 Color Action… USA   Livre         175000000
##  4 Wild …  1999 Barry …     106 Color Action… USA   A partir de … 170000000
##  5 Suici…  2016 David …     123 Color Action… USA   A partir de … 175000000
##  6 Big H…  2014 Don Ha…     102 Color Action… USA   Livre         165000000
##  7 Madag…  2008 Eric D…      89 Color Action… USA   Livre         150000000
##  8 G-For…  2009 Hoyt Y…      88 Color Action… USA   Livre         150000000
##  9 Kung …  2011 Jennif…      90 Color Action… USA   Livre         150000000
## 10 Mars …  2011 Simon …      88 Color Action… USA   Livre         150000000
## # … with 193 more rows, and 6 more variables: receita <dbl>, nota_imdb <dbl>,
## #   likes_facebook <dbl>, ator_1 <chr>, ator_2 <chr>, ator_3 <chr>
```


**f.** filmes que não possuem informação tanto de receita quanto de orçamento (isto é, possuem `NA` em ambas as colunas).


```r
imdb %>% 
  filter(is.na(orcamento), is.na(receita))
## # A tibble: 137 x 15
##    titulo   ano diretor duracao cor   generos pais  classificacao orcamento
##    <chr>  <dbl> <chr>     <dbl> <chr> <chr>   <chr> <chr>             <dbl>
##  1 The A…    NA <NA>         60 Color Action… USA   Outros               NA
##  2 Ben-H…  2016 Timur …     141 Color Advent… USA   A partir de …        NA
##  3 Hanni…    NA <NA>         44 Color Crime|… USA   Outros               NA
##  4 All T…  1979 Bob Fo…     123 Color Comedy… USA   A partir de …        NA
##  5 Dared…    NA <NA>         54 <NA>  Action… USA   Outros               NA
##  6 Bewit…    NA <NA>         25 Blac… Comedy… USA   Outros               NA
##  7 Const…    NA <NA>         43 Color Drama|… USA   Outros               NA
##  8 Life      NA <NA>         45 Color Crime|… USA   Outros               NA
##  9 Sleep…    NA <NA>         45 Color Advent… USA   Outros               NA
## 10 Last …    NA <NA>         30 Color Comedy  USA   Outros               NA
## # … with 127 more rows, and 6 more variables: receita <dbl>, nota_imdb <dbl>,
## #   likes_facebook <dbl>, ator_1 <chr>, ator_2 <chr>, ator_3 <chr>
```

### Modificando e criando novas colunas

**1.** Crie uma coluna chamada `prejuizo` (`orcamento - receita`) e salve a nova tabela em um objeto chamado `imdb_prejuizo`. Em seguida, filtre apenas os filmes que deram prejuízo e ordene a tabela por ordem crescente de prejuízo.


```r
imdb_prejuizo <- imdb %>% 
  mutate(prejuizo = orcamento - receita)

imdb_prejuizo %>% 
  filter(prejuizo > 0) %>% 
  arrange(prejuizo)
## # A tibble: 1,312 x 16
##    titulo   ano diretor duracao cor   generos pais  classificacao orcamento
##    <chr>  <dbl> <chr>     <dbl> <chr> <chr>   <chr> <chr>             <dbl>
##  1 The H…  2009 Michel…      93 Color Docume… USA   Outros           160000
##  2 Newly…  2011 Edward…      95 Color Comedy… USA   Outros             9000
##  3 Short…  2006 John C…     101 Color Comedy… USA   Outros          2000000
##  4 Slam    1998 Marc L…     100 Color Drama   USA   A partir de …   1000000
##  5 Pink …  1971 James …      65 Color Drama|… USA   Outros            27000
##  6 The F…  2011 Brando…      82 Color Comedy  USA   A partir de …     60000
##  7 Assau…  2005 Jean-F…     109 Color Action… USA   A partir de …  20000000
##  8 The B…  2002 Sherma…     103 Color Drama|… USA   Outros           200000
##  9 Latte…  2003 C. Jay…     107 Color Comedy… USA   A partir de …    850000
## 10 Happy…  2014 Joe Sw…      82 Color Comedy… USA   A partir de …     70000
## # … with 1,302 more rows, and 7 more variables: receita <dbl>, nota_imdb <dbl>,
## #   likes_facebook <dbl>, ator_1 <chr>, ator_2 <chr>, ator_3 <chr>,
## #   prejuizo <dbl>
```
…
**c.** `lucro_relativo = (lucro - lucro_medio)/lucro_medio`

**d.** `houve_lucro = ifelse(lucro > 0, "sim", "não")`


```r
imdb %>% 
  mutate(
    lucro = receita - orcamento,
    lucro_medio = mean(lucro, na.rm = TRUE),
    lucro_relativo = (lucro - lucro_medio) / lucro_medio,
    houve_lucro = ifelse(lucro > 0, "sim", "não")
  )
## # A tibble: 3,807 x 19
##    titulo   ano diretor duracao cor   generos pais  classificacao orcamento
##    <chr>  <dbl> <chr>     <dbl> <chr> <chr>   <chr> <chr>             <dbl>
##  1 Avata…  2009 James …     178 Color Action… USA   A partir de … 237000000
##  2 Pirat…  2007 Gore V…     169 Color Action… USA   A partir de … 300000000
##  3 The D…  2012 Christ…     164 Color Action… USA   A partir de … 250000000
##  4 John …  2012 Andrew…     132 Color Action… USA   A partir de … 263700000
##  5 Spide…  2007 Sam Ra…     156 Color Action… USA   A partir de … 258000000
##  6 Tangl…  2010 Nathan…     100 Color Advent… USA   Livre         260000000
##  7 Aveng…  2015 Joss W…     141 Color Action… USA   A partir de … 250000000
##  8 Batma…  2016 Zack S…     183 Color Action… USA   A partir de … 250000000
##  9 Super…  2006 Bryan …     169 Color Action… USA   A partir de … 209000000
## 10 Pirat…  2006 Gore V…     151 Color Action… USA   A partir de … 225000000
## # … with 3,797 more rows, and 10 more variables: receita <dbl>,
## #   nota_imdb <dbl>, likes_facebook <dbl>, ator_1 <chr>, ator_2 <chr>,
## #   ator_3 <chr>, lucro <dbl>, lucro_medio <dbl>, lucro_relativo <dbl>,
## #   houve_lucro <chr>
```


**3.** Crie uma nova coluna que classifique o filme em `"recente"` (posterior a 2000) e `"antigo"` (de 2000 para trás).


```r
imdb %>% 
  mutate(antigo_ou_recente = ifelse(ano > 2000, "recente", "antigo"))
## # A tibble: 3,807 x 16
##    titulo   ano diretor duracao cor   generos pais  classificacao orcamento
##    <chr>  <dbl> <chr>     <dbl> <chr> <chr>   <chr> <chr>             <dbl>
##  1 Avata…  2009 James …     178 Color Action… USA   A partir de … 237000000
##  2 Pirat…  2007 Gore V…     169 Color Action… USA   A partir de … 300000000
##  3 The D…  2012 Christ…     164 Color Action… USA   A partir de … 250000000
##  4 John …  2012 Andrew…     132 Color Action… USA   A partir de … 263700000
##  5 Spide…  2007 Sam Ra…     156 Color Action… USA   A partir de … 258000000
##  6 Tangl…  2010 Nathan…     100 Color Advent… USA   Livre         260000000
##  7 Aveng…  2015 Joss W…     141 Color Action… USA   A partir de … 250000000
##  8 Batma…  2016 Zack S…     183 Color Action… USA   A partir de … 250000000
##  9 Super…  2006 Bryan …     169 Color Action… USA   A partir de … 209000000
## 10 Pirat…  2006 Gore V…     151 Color Action… USA   A partir de … 225000000
## # … with 3,797 more rows, and 7 more variables: receita <dbl>, nota_imdb <dbl>,
## #   likes_facebook <dbl>, ator_1 <chr>, ator_2 <chr>, ator_3 <chr>,
## #   antigo_ou_recente <chr>
```
…
**b.** a receita média e mediana dos filmes por ano;


```r
imdb %>% 
  group_by(ano) %>% 
  summarise(
    receita_media = mean(receita, na.rm = TRUE),
    receita_mediana = median(receita, na.rm = TRUE)
  )
## `summarise()` ungrouping output (override with `.groups` argument)
## # A tibble: 91 x 3
##      ano receita_media receita_mediana
##    <dbl>         <dbl>           <dbl>
##  1  1916           NaN              NA
##  2  1920       3000000         3000000
##  3  1925           NaN              NA
##  4  1929       2808000         2808000
##  5  1930           NaN              NA
##  6  1932           NaN              NA
##  7  1933       2300000         2300000
##  8  1934           NaN              NA
##  9  1935       3000000         3000000
## 10  1936        163245          163245
## # … with 81 more rows
```

**c.** apenas o nome dos diretores com mais de 10 filmes.


```r
imdb %>% 
  filter(!is.na(diretor)) %>% 
  group_by(diretor) %>% 
  summarise(num_filmes = n()) %>% 
  filter(num_filmes > 10) %>% 
  select(diretor)
## `summarise()` ungrouping output (override with `.groups` argument)
## # A tibble: 22 x 1
##    diretor             
##    <chr>               
##  1 Barry Levinson      
##  2 Clint Eastwood      
##  3 Francis Ford Coppola
##  4 John Carpenter      
##  5 Kevin Smith         
##  6 Martin Scorsese     
##  7 Michael Bay         
##  8 Renny Harlin        
##  9 Ridley Scott        
## 10 Rob Cohen           
## # … with 12 more rows
```

*Também podemos usar a função `count()`.*


```r
imdb %>% 
  filter(!is.na(diretor)) %>% 
  count(diretor, name = "num_filmes") %>% 
  filter(num_filmes > 10) %>% 
  select(diretor)
## # A tibble: 22 x 1
##    diretor             
##    <chr>               
##  1 Barry Levinson      
##  2 Clint Eastwood      
##  3 Francis Ford Coppola
##  4 John Carpenter      
##  5 Kevin Smith         
##  6 Martin Scorsese     
##  7 Michael Bay         
##  8 Renny Harlin        
##  9 Ridley Scott        
## 10 Rob Cohen           
## # … with 12 more rows
```
…
**a.** Salve em um novo objeto uma tabela com a
nota média dos filmes de cada diretor. Essa tabela
deve conter duas colunas (`diretor` e `nota_imdb_media`)
e cada linha deve ser um diretor diferente.


```r
nota_diretores <- imdb %>% 
  group_by(diretor) %>% 
  summarise(nota_imdb_media = mean(nota_imdb))
## `summarise()` ungrouping output (override with `.groups` argument)

nota_diretores
## # A tibble: 1,813 x 2
##    diretor          nota_imdb_media
##    <chr>                      <dbl>
##  1 A. Raven Cruz                1.9
##  2 Aaron Hann                   6  
##  3 Aaron Schneider              7.1
##  4 Aaron Seltzer                2.7
##  5 Abel Ferrara                 6.6
##  6 Adam Carolla                 6.1
##  7 Adam Goldberg                5.4
##  8 Adam Green                   5.7
##  9 Adam Jay Epstein             3.8
## 10 Adam Marcus                  4.3
## # … with 1,803 more rows
```


**b.** Use o `left_join()` para trazer a coluna
`nota_imdb_media` da tabela do item anterior
para a tabela `imdb` original.


```r
imdb %>% 
  left_join(nota_diretores, by = "diretor") %>% 
  select(nota_imdb_media, everything())
## # A tibble: 3,807 x 16
##    nota_imdb_media titulo   ano diretor duracao cor   generos pais 
##              <dbl> <chr>  <dbl> <chr>     <dbl> <chr> <chr>   <chr>
##  1            7.88 Avata…  2009 James …     178 Color Action… USA  
##  2            6.99 Pirat…  2007 Gore V…     169 Color Action… USA  
##  3            8.43 The D…  2012 Christ…     164 Color Action… USA  
##  4            7.73 John …  2012 Andrew…     132 Color Action… USA  
##  5            6.9  Spide…  2007 Sam Ra…     156 Color Action… USA  
##  6            7.8  Tangl…  2010 Nathan…     100 Color Advent… USA  
##  7            7.92 Aveng…  2015 Joss W…     141 Color Action… USA  
##  8            7.18 Batma…  2016 Zack S…     183 Color Action… USA  
##  9            7.26 Super…  2006 Bryan …     169 Color Action… USA  
## 10            6.99 Pirat…  2006 Gore V…     151 Color Action… USA  
## # … with 3,797 more rows, and 8 more variables: classificacao <chr>,
## #   orcamento <dbl>, receita <dbl>, nota_imdb <dbl>, likes_facebook <dbl>,
## #   ator_1 <chr>, ator_2 <chr>, ator_3 <chr>
```
