…
*A função `glimpse()` traz um resumo da base, contendo o número de linhas, colunas, o nome e tipo das colunas e as primeiras observações de cada coluna.*

---

**2.** Crie uma tabela com apenas as colunas `titulo`, `direcao`, e `orcamento.` Salve em um objeto chamado `imdb_simples`.


```r
imdb_simples <- select(imdb, titulo, direcao, orcamento)
imdb_simples
```

```
## # A tibble: 11,340 × 3
##    titulo                            direcao                        orcamento
##    <chr>                             <chr>                              <dbl>
##  1 Broadcast News                    James L. Brooks                 20000000
##  2 Murder, He Says                   George Marshall                       NA
##  3 Me, Myself & Irene                Bobby Farrelly, Peter Farrelly  51000000
##  4 Never Give a Sucker an Even Break Edward F. Cline                       NA
##  5 Adam & Steve                      Craig Chester                         NA
##  6 Henry Gamble's Birthday Party     Stephen Cone                          NA
##  7 No Way Out                        Roger Donaldson                 15000000
##  8 Welcome Home, Roscoe Jenkins      Malcolm D. Lee                  35000000
##  9 Some Kind of Wonderful            Howard Deutch                         NA
## 10 The Family That Preys             Tyler Perry                           NA
## # … with 11,330 more rows
```

---

**3.** Selecione apenas as colunas `duracao`, `direcao`, `descricao` e `producao` usando a função auxiliar `contains()`.


```r
select(imdb, contains("cao"))
```

```
## # A tibble: 11,340 × 4
##    duracao direcao                        producao                     descricao
##      <dbl> <chr>                          <chr>                        <chr>    
##  1     133 James L. Brooks                Amercent Films               Take two…
##  2      91 George Marshall                Paramount Pictures           A pollst…
##  3     116 Bobby Farrelly, Peter Farrelly Twentieth Century Fox        A nice-g…
##  4      71 Edward F. Cline                Universal Pictures           A filmma…
##  5      99 Craig Chester                  Funny Boy Films              Follows …
##  6      87 Stephen Cone                   Chicago Media Project        Preacher…
##  7     114 Roger Donaldson                Orion Pictures               A coveru…
##  8     104 Malcolm D. Lee                 Universal Pictures           Dr. RJ S…
##  9      95 Howard Deutch                  Hughes Entertainment         When Kei…
## 10     111 Tyler Perry                    Louisiana Producers Film So… Two fami…
## # … with 11,330 more rows
```
…
select(imdb, -contains("num"))
```

### Ordenando a base {-}

**1.** Ordene os filmes em ordem crescente de `ano` e decrescente de `receita` e salve em um objeto chamado `filmes_ordenados`.


```r
filmes_ordenados <- arrange(imdb, ano, desc(receita))
filmes_ordenados
```

```
## # A tibble: 11,340 × 20
##    id_filme  titulo   ano data_lancamento generos duracao pais  idioma orcamento
##    <chr>     <chr>  <dbl> <chr>           <chr>     <dbl> <chr> <chr>      <dbl>
##  1 tt0004707 Tilli…  1914 1914-12-21      Comedy       82 USA   None,…     50000
##  2 tt0004181 Judit…  1914 1914-03-08      Drama        61 USA   Engli…     40000
##  3 tt0003643 The A…  1914 1914-08-24      Crime,…      78 USA   Engli…        NA
##  4 tt0005960 The R…  1915 1915-09-13      Biogra…      72 USA   Engli…        NA
##  5 tt0005078 The C…  1915 1915-12-13      Drama,…      59 USA   Engli…     17311
##  6 tt0004972 The B…  1915 1915-03-21      Drama,…     195 USA   None      100000
##  7 tt0006864 Intol…  1916 1918-02-24      Drama,…     163 USA   Engli…    385907
##  8 tt0006333 20,00…  1916 1916-12-24      Action…     105 USA   Engli…    200000
##  9 tt0008443 The P…  1917 1917-03-05      Comedy…      65 USA   Engli…        NA
## 10 tt0009611 Shoul…  1918 1918-10-27      Comedy…      45 USA   None,…        NA
## # … with 11,330 more rows, and 11 more variables: receita <dbl>,
## #   receita_eua <dbl>, nota_imdb <dbl>, num_avaliacoes <dbl>, direcao <chr>,
## #   roteiro <chr>, producao <chr>, elenco <chr>, descricao <chr>,
## #   num_criticas_publico <dbl>, num_criticas_critica <dbl>
```
…
**3.** Retorne tabelas (`tibbles`) apenas com:

**a.** filmes de ação anteriores a 1950;


```r
library(stringr)

imdb %>% 
  filter(str_detect(generos, "Action"), ano < 1950)
```

```
## # A tibble: 102 × 20
##    id_filme  titulo   ano data_lancamento generos duracao pais  idioma orcamento
##    <chr>     <chr>  <dbl> <chr>           <chr>     <dbl> <chr> <chr>      <dbl>
##  1 tt0041098 Afric…  1949 1950-04-08      Action…      79 USA   Engli…        NA
##  2 tt0037098 The M…  1944 1944-12-22      Action…      60 USA   Engli…        NA
##  3 tt0034889 In Ol…  1942 1947-06-25      Action…      88 USA   Engli…        NA
##  4 tt0040946 Wake …  1948 1949-03-01      Action…     106 USA   Engli…   1200343
##  5 tt0029843 The A…  1938 1939-01-26      Action…     102 USA   Engli…   1900000
##  6 tt0034522 The B…  1942 1942-12-04      Action…      87 USA   Engli…        NA
##  7 tt0024902 Blue …  1934 1934-05-10      Action…      54 USA   Engli…        NA
##  8 tt0041841 Sands…  1949 1950-03-01      Action…     100 USA   Engli…   1000000
##  9 tt0027438 The C…  1936 1936-10-20      Action…     115 USA   Engli…   1200000
## 10 tt0040076 Adven…  1948 1949-04-28      Action…     110 USA   Engli…   3500000
## # … with 92 more rows, and 11 more variables: receita <dbl>, receita_eua <dbl>,
## #   nota_imdb <dbl>, num_avaliacoes <dbl>, direcao <chr>, roteiro <chr>,
## #   producao <chr>, elenco <chr>, descricao <chr>, num_criticas_publico <dbl>,
## #   num_criticas_critica <dbl>
```


**b.** filmes dirigidos por "Woody Allen" ou "Wes Anderson";


```r
imdb %>% 
  filter(direcao == "Woody Allen" | direcao == "Wes Anderson")
```

```
## # A tibble: 42 × 20
##    id_filme  titulo   ano data_lancamento generos duracao pais  idioma orcamento
##    <chr>     <chr>  <dbl> <chr>           <chr>     <dbl> <chr> <chr>      <dbl>
##  1 tt0094663 Anoth…  1988 1989-03-17      Drama        81 USA   Engli…  10000000
##  2 tt1748122 Moonr…  2012 2012-12-05      Comedy…      94 USA   Engli…  16000000
##  3 tt0084329 A Mid…  1982 1982-09-24      Comedy       88 USA   Engli…        NA
##  4 tt0070707 Sleep…  1973 1974-03-15      Comedy…      89 USA   Engli…   2000000
##  5 tt0068555 Every…  1972 1973-03-23      Comedy       88 USA   Engli…   2000000
##  6 tt0065063 Take …  1969 1972-12-21      Comedy…      85 USA   Engli…   1500000
##  7 tt0278823 Holly…  2002 2002-10-31      Comedy…     112 USA   Engli…  16000000
##  8 tt0378947 Melin…  2004 2004-12-22      Comedy…      99 USA   Engli…        NA
##  9 tt0113819 Might…  1995 1996-01-26      Comedy…      95 USA   Engli…  15000000
## 10 tt0091167 Hanna…  1986 1986-05-22      Comedy…     107 USA   Engli…   6400000
## # … with 32 more rows, and 11 more variables: receita <dbl>, receita_eua <dbl>,
## #   nota_imdb <dbl>, num_avaliacoes <dbl>, direcao <chr>, roteiro <chr>,
## #   producao <chr>, elenco <chr>, descricao <chr>, num_criticas_publico <dbl>,
## #   num_criticas_critica <dbl>
```


**c.** filmes do "Steven Spielberg" ordenados de forma decrescente por ano, mostrando apenas as colunas `titulo` e `ano`;


```r
imdb %>% 
  filter(direcao == "Steven Spielberg") %>% 
  arrange(desc(ano)) %>% 
  select(titulo, ano)
```

```
## # A tibble: 21 × 2
##    titulo                                               ano
##    <chr>                                              <dbl>
##  1 Indiana Jones and the Kingdom of the Crystal Skull  2008
##  2 War of the Worlds                                   2005
##  3 The Terminal                                        2004
##  4 Minority Report                                     2002
##  5 Saving Private Ryan                                 1998
##  6 Amistad                                             1997
##  7 The Lost World: Jurassic Park                       1997
##  8 Schindler's List                                    1993
##  9 Jurassic Park                                       1993
## 10 Hook                                                1991
## # … with 11 more rows
```


**d.**  filmes que tenham "Action" **ou** "Comedy" entre os seus gêneros;


```r
library(stringr)

# Solução 1
imdb %>% 
  filter(str_detect(generos, "Action") | str_detect(generos, "Comedy"))
```

```
## # A tibble: 6,035 × 20
##    id_filme  titulo   ano data_lancamento generos duracao pais  idioma orcamento
##    <chr>     <chr>  <dbl> <chr>           <chr>     <dbl> <chr> <chr>      <dbl>
##  1 tt0092699 Broad…  1987 1988-04-01      Comedy…     133 USA   Engli…  20000000
##  2 tt0037931 Murde…  1945 1945-06-23      Comedy…      91 USA   Engli…        NA
##  3 tt0183505 Me, M…  2000 2000-09-08      Comedy      116 USA   Engli…  51000000
##  4 tt0033945 Never…  1941 1947-05-02      Comedy…      71 USA   Engli…        NA
##  5 tt0372122 Adam …  2005 2007-05-17      Comedy…      99 USA   Engli…        NA
##  6 tt0093640 No Wa…  1987 1987-12-11      Action…     114 USA   Engli…  15000000
##  7 tt0494652 Welco…  2008 2008-02-08      Comedy…     104 USA   Engli…  35000000
##  8 tt0110668 Night…  1995 1995-02-04      Action…      93 USA   Engli…        NA
##  9 tt0025101 Fashi…  1934 1934-02-14      Comedy…      78 USA   Engli…        NA
## 10 tt1488555 The C…  2011 2011-12-09      Comedy…     112 USA   Engli…  52000000
## # … with 6,025 more rows, and 11 more variables: receita <dbl>,
## #   receita_eua <dbl>, nota_imdb <dbl>, num_avaliacoes <dbl>, direcao <chr>,
## #   roteiro <chr>, producao <chr>, elenco <chr>, descricao <chr>,
## #   num_criticas_publico <dbl>, num_criticas_critica <dbl>
```
…
**f.** filmes que não possuem informação tanto de receita quanto de orçamento (isto é, possuem `NA` em ambas as colunas).


```r
imdb %>% 
  filter(is.na(orcamento), is.na(receita))
```

```
## # A tibble: 2,921 × 20
##    id_filme  titulo   ano data_lancamento generos duracao pais  idioma orcamento
##    <chr>     <chr>  <dbl> <chr>           <chr>     <dbl> <chr> <chr>      <dbl>
##  1 tt0037931 Murde…  1945 1945-06-23      Comedy…      91 USA   Engli…        NA
##  2 tt0033945 Never…  1941 1947-05-02      Comedy…      71 USA   Engli…        NA
##  3 tt3703836 Henry…  2015 2016-01-08      Drama        87 USA   Engli…        NA
##  4 tt0110668 Night…  1995 1995-02-04      Action…      93 USA   Engli…        NA
##  5 tt0035784 Dead …  1943 1943-04-12      Drama,…      64 USA   Engli…        NA
##  6 tt0025101 Fashi…  1934 1934-02-14      Comedy…      78 USA   Engli…        NA
##  7 tt1242423 Dear …  2009 2011-07-01      Comedy       87 USA   Engli…        NA
##  8 tt0046353 Split…  1953 1953-05-02      Crime,…      85 USA   Engli…        NA
##  9 tt0482461 Barry…  2010 2018            Comedy…      95 USA   Engli…        NA
## 10 tt0029992 A Chr…  1938 1938-12-16      Drama,…      69 USA   Engli…        NA
## # … with 2,911 more rows, and 11 more variables: receita <dbl>,
## #   receita_eua <dbl>, nota_imdb <dbl>, num_avaliacoes <dbl>, direcao <chr>,
## #   roteiro <chr>, producao <chr>, elenco <chr>, descricao <chr>,
## #   num_criticas_publico <dbl>, num_criticas_critica <dbl>
```
…
**1.** Crie uma coluna chamada `prejuizo` (`orcamento - receita`) e salve a nova tabela em um objeto chamado `imdb_prejuizo`. Em seguida, filtre apenas os filmes que deram prejuízo e ordene a tabela por ordem crescente de prejuízo.


```r
imdb_prejuizo <- imdb %>% 
  mutate(prejuizo = orcamento - receita)

imdb_prejuizo %>% 
  filter(prejuizo > 0) %>% 
  arrange(prejuizo)
```

```
## # A tibble: 1,795 × 21
##    id_filme  titulo   ano data_lancamento generos duracao pais  idioma orcamento
##    <chr>     <chr>  <dbl> <chr>           <chr>     <dbl> <chr> <chr>      <dbl>
##  1 tt2063781 Smash…  2012 2012-12-14      Drama        81 USA   Engli…    500000
##  2 tt1880418 Newly…  2011 2011-11-04      Comedy…      95 USA   Engli…      9000
##  3 tt0067961 Wanda   1970 1971-01-14      Crime,…     102 USA   Engli…    115000
##  4 tt0073043 The G…  1975 1975-10-01      Horror…      84 USA   Engli…    300000
##  5 tt0083745 Come …  1982 1983-04-06      Comedy…     109 USA   Engli…    850000
##  6 tt0045826 Glen …  1953 1953-04-01      Drama        65 USA   Engli…     20000
##  7 tt0365960 Zero …  2002 2004-01-23      Drama        92 USA   Engli…     20000
##  8 tt0086058 The O…  1983 1983-11-04      Action…     103 USA   Engli…   6500000
##  9 tt0037638 Detour  1945 1946-01-25      Crime,…      68 USA   Engli…     30000
## 10 tt1294161 The E…  2009 2010-05-06      Drama        79 USA   Engli…     40000
## # … with 1,785 more rows, and 12 more variables: receita <dbl>,
## #   receita_eua <dbl>, nota_imdb <dbl>, num_avaliacoes <dbl>, direcao <chr>,
## #   roteiro <chr>, producao <chr>, elenco <chr>, descricao <chr>,
## #   num_criticas_publico <dbl>, num_criticas_critica <dbl>, prejuizo <dbl>
```
…
**d.** `houve_lucro = ifelse(lucro > 0, "sim", "não")`


```r
imdb %>% 
  mutate(
    lucro = receita - orcamento,
    lucro_medio = mean(lucro, na.rm = TRUE),
    lucro_relativo = (lucro - lucro_medio) / lucro_medio,
    houve_lucro = ifelse(lucro > 0, "sim", "não")
  )
```

```
## # A tibble: 11,340 × 24
##    id_filme  titulo   ano data_lancamento generos duracao pais  idioma orcamento
##    <chr>     <chr>  <dbl> <chr>           <chr>     <dbl> <chr> <chr>      <dbl>
##  1 tt0092699 Broad…  1987 1988-04-01      Comedy…     133 USA   Engli…  20000000
##  2 tt0037931 Murde…  1945 1945-06-23      Comedy…      91 USA   Engli…        NA
##  3 tt0183505 Me, M…  2000 2000-09-08      Comedy      116 USA   Engli…  51000000
##  4 tt0033945 Never…  1941 1947-05-02      Comedy…      71 USA   Engli…        NA
##  5 tt0372122 Adam …  2005 2007-05-17      Comedy…      99 USA   Engli…        NA
##  6 tt3703836 Henry…  2015 2016-01-08      Drama        87 USA   Engli…        NA
##  7 tt0093640 No Wa…  1987 1987-12-11      Action…     114 USA   Engli…  15000000
##  8 tt0494652 Welco…  2008 2008-02-08      Comedy…     104 USA   Engli…  35000000
##  9 tt0094006 Some …  1987 1988-01-13      Drama,…      95 USA   Engli…        NA
## 10 tt1142798 The F…  2008 2008-09-12      Drama       111 USA   Engli…        NA
## # … with 11,330 more rows, and 15 more variables: receita <dbl>,
## #   receita_eua <dbl>, nota_imdb <dbl>, num_avaliacoes <dbl>, direcao <chr>,
## #   roteiro <chr>, producao <chr>, elenco <chr>, descricao <chr>,
## #   num_criticas_publico <dbl>, num_criticas_critica <dbl>, lucro <dbl>,
## #   lucro_medio <dbl>, lucro_relativo <dbl>, houve_lucro <chr>
```

---

**3.** Crie uma nova coluna que classifique o filme em `"recente"` (posterior a 2000) e `"antigo"` (de 2000 para trás).


```r
imdb %>% 
  mutate(antigo_ou_recente = ifelse(ano > 2000, "recente", "antigo"))
```

```
## # A tibble: 11,340 × 21
##    id_filme  titulo   ano data_lancamento generos duracao pais  idioma orcamento
##    <chr>     <chr>  <dbl> <chr>           <chr>     <dbl> <chr> <chr>      <dbl>
##  1 tt0092699 Broad…  1987 1988-04-01      Comedy…     133 USA   Engli…  20000000
##  2 tt0037931 Murde…  1945 1945-06-23      Comedy…      91 USA   Engli…        NA
##  3 tt0183505 Me, M…  2000 2000-09-08      Comedy      116 USA   Engli…  51000000
##  4 tt0033945 Never…  1941 1947-05-02      Comedy…      71 USA   Engli…        NA
##  5 tt0372122 Adam …  2005 2007-05-17      Comedy…      99 USA   Engli…        NA
##  6 tt3703836 Henry…  2015 2016-01-08      Drama        87 USA   Engli…        NA
##  7 tt0093640 No Wa…  1987 1987-12-11      Action…     114 USA   Engli…  15000000
##  8 tt0494652 Welco…  2008 2008-02-08      Comedy…     104 USA   Engli…  35000000
##  9 tt0094006 Some …  1987 1988-01-13      Drama,…      95 USA   Engli…        NA
## 10 tt1142798 The F…  2008 2008-09-12      Drama       111 USA   Engli…        NA
## # … with 11,330 more rows, and 12 more variables: receita <dbl>,
## #   receita_eua <dbl>, nota_imdb <dbl>, num_avaliacoes <dbl>, direcao <chr>,
## #   roteiro <chr>, producao <chr>, elenco <chr>, descricao <chr>,
## #   num_criticas_publico <dbl>, num_criticas_critica <dbl>,
## #   antigo_ou_recente <chr>
```
…
---

**4.** Retorne tabelas (`tibbles`) apenas com:

**a.** a nota IMDB média dos filmes por ano de lançamento;


```r
imdb %>% 
  group_by(ano) %>% 
  summarise(nota_media = mean(nota_imdb, na.rm = TRUE))
```

```
## # A tibble: 108 × 2
##      ano nota_media
##    <dbl>      <dbl>
##  1  1914       6.27
##  2  1915       6.57
##  3  1916       7   
##  4  1917       6.7 
##  5  1918       6.63
##  6  1919       6.9 
##  7  1920       6.76
##  8  1921       7.07
##  9  1922       6.9 
## 10  1923       7.27
## # … with 98 more rows
```
**b.** a receita média e mediana dos filmes por ano;


```r
imdb %>% 
  filter(!is.na(receita)) %>% 
  group_by(ano) %>% 
  summarise(
    receita_media = mean(receita, na.rm = TRUE),
    receita_mediana = median(receita, na.rm = TRUE)
  )
```

```
## # A tibble: 95 × 3
##      ano receita_media receita_mediana
##    <dbl>         <dbl>           <dbl>
##  1  1921      4605294.        4605294.
##  2  1923        11233           11233 
##  3  1925      2406972         2834000 
##  4  1927        42231.           4841 
##  5  1928       589574.          26916 
##  6  1929      5277780         5277780 
##  7  1931        37363.          31312.
##  8  1932       448907           34649 
##  9  1933        33289           14352.
## 10  1934      2198358.           9800 
## # … with 85 more rows
```

**c.** apenas o nome das pessoas que dirigiram mais de 10 filmes.


```r
imdb %>% 
  filter(!is.na(direcao)) %>% 
  group_by(direcao) %>% 
  summarise(num_filmes = n()) %>% 
  filter(num_filmes > 10) %>% 
  select(direcao)
```

```
## # A tibble: 134 × 1
##    direcao           
##    <chr>             
##  1 Alan J. Pakula    
##  2 Alan Rudolph      
##  3 Albert Pyun       
##  4 Alfred Hitchcock  
##  5 Andrew V. McLaglen
##  6 Anthony Mann      
##  7 Arthur Hiller     
##  8 Arthur Penn       
##  9 Barry Levinson    
## 10 Billy Wilder      
## # … with 124 more rows
```

*Também podemos usar a função `count()`.*


```r
imdb %>% 
  filter(!is.na(direcao)) %>% 
  count(direcao, name = "num_filmes") %>% 
  filter(num_filmes > 10) %>% 
  select(direcao)
```

```
## # A tibble: 134 × 1
##    direcao           
##    <chr>             
##  1 Alan J. Pakula    
##  2 Alan Rudolph      
##  3 Albert Pyun       
##  4 Alfred Hitchcock  
##  5 Andrew V. McLaglen
##  6 Anthony Mann      
##  7 Arthur Hiller     
##  8 Arthur Penn       
##  9 Barry Levinson    
## 10 Billy Wilder      
## # … with 124 more rows
```
…
```r
nota_direcao <- imdb %>% 
  group_by(direcao) %>% 
  summarise(nota_imdb_media = mean(nota_imdb))

nota_direcao
```

```
## # A tibble: 5,140 × 2
##    direcao                           nota_imdb_media
##    <chr>                                       <dbl>
##  1 A. Edward Sutherland                         6.62
##  2 A.J. Edwards                                 6.1 
##  3 A.T. White                                   5.3 
##  4 Aaron Blaise, Robert Walker                  6.8 
##  5 Aaron Hann, Mario Miscione                   6   
##  6 Aaron Harvey                                 4.97
##  7 Aaron Horvath, Peter Rida Michail            6.8 
##  8 Aaron K. Carter                              8.2 
##  9 Aaron Katz                                   6   
## 10 Aaron Kaufman                                4.5 
## # … with 5,130 more rows
```
…
