…
**b.** b. Utilizando a coluna criada em (a) crie uma tabela com o número anual de filmes com nota maior 8.


```r
tabela <- imdb_notas_8 %>%
  filter(nota_maior_que_8 == "Nota maior que 8") %>%
  count(ano)

tabela
```

```
## # A tibble: 65 x 2
##      ano     n
##  * <dbl> <int>
##  1  1925     1
##  2  1934     1
##  3  1936     1
##  4  1939     3
##  5  1940     1
##  6  1942     1
##  7  1946     2
##  8  1952     2
##  9  1954     1
## 10  1957     1
## # … with 55 more rows
```
…
